Data Entry Person,Date,Observer(s),Location,Tidal height = distance from seawall (m),Habitat description,Sampling procedure,Rock #,Rock length (cm),Rock width (cm),Crab species,Crab color,Sex (M/F),Eggs (Y/N),Carapace width (mm)
Aidan,5/2/2014,Dillon and Sarah,Alki Beach 1,18.3,,,1,22,19,O,DG,M,N,12
Aidan,5/2/2014,Dillon and Sarah,Alki Beach 1,18.3,,,1,22,19,O,W,F,N,14
Aidan,5/2/2014,Dillon and Sarah,Alki Beach 1,18.3,,,2,63,44,O,G/B,M,N,18
Aidan,5/2/2014,Dillon and Sarah,Alki Beach 1,18.3,,,2,63,44,O,DG,F,Y,18
Aidan,5/2/2014,Dillon and Sarah,Alki Beach 1,18.3,,,2,63,44,O,DG,M,N,18
Aidan,5/2/2014,Dillon and Sarah,Alki Beach 1,18.3,,,2,63,44,O,DG,F,Y,15
Aidan,5/2/2014,Dillon and Sarah,Alki Beach 1,18.3,,,2,63,44,O,G/B,M,N,16
Aidan,5/2/2014,Dillon and Sarah,Alki Beach 1,18.3,,,2,63,44,O,DG,F,Y,18
Aidan,5/2/2014,Dillon and Sarah,Alki Beach 1,18.3,,,2,63,44,O,G/B,F,Y,21
Aidan,5/2/2014,Dillon and Sarah,Alki Beach 1,18.3,,,2,63,44,O,DG,M,N,15
Aidan,5/2/2014,Dillon and Sarah,Alki Beach 1,18.3,,,2,63,44,O,G/B,F,N,15
Aidan,5/2/2014,Dillon and Sarah,Alki Beach 1,18.3,,,2,63,44,O,G/B,F,N,14
Aidan,5/2/2014,Dillon and Sarah,Alki Beach 1,18.3,,,2,63,44,O,G/B,F,N,14
Aidan,5/2/2014,Dillon and Sarah,Alki Beach 1,18.3,,,2,63,44,O,G/B,F,N,15
Aidan,5/2/2014,Dillon and Sarah,Alki Beach 1,18.3,,,2,63,44,O,G/B,F,N,17
Aidan,5/2/2014,Dillon and Sarah,Alki Beach 1,18.3,,,2,63,44,O,G/B,F,N,14
Aidan,5/2/2014,Dillon and Sarah,Alki Beach 1,18.3,,,2,63,44,O,G/B,F,Y,15
Aidan,5/2/2014,Dillon and Sarah,Alki Beach 1,18.3,,,2,63,44,O,G/B,F,N,16
Aidan,5/2/2014,Dillon and Sarah,Alki Beach 1,18.3,,,2,63,44,O,DG,F,Y,12
Aidan,5/2/2014,Dillon and Sarah,Alki Beach 1,18.3,,,2,63,44,O,G/B,M,N,17
Aidan,5/2/2014,Dillon and Sarah,Alki Beach 1,18.3,,,2,63,44,O,G/B,M,N,17
Aidan,5/2/2014,Dillon and Sarah,Alki Beach 1,18.3,,,2,63,44,O,M,F,N,12
Aidan,5/2/2014,Dillon and Sarah,Alki Beach 1,18.3,,,2,63,44,O,G/B,F,Y,14
Aidan,5/2/2014,Dillon and Sarah,Alki Beach 1,18.3,,,2,63,44,O,W,F,N,18
Aidan,5/2/2014,Dillon and Sarah,Alki Beach 1,18.3,,,2,63,44,O,G/B,F,N,15
Aidan,5/2/2014,Dillon and Sarah,Alki Beach 1,18.3,,,2,63,44,O,G/B,F,Y,14
Aidan,5/2/2014,Dillon and Sarah,Alki Beach 1,18.3,,,2,63,44,O,G/B,F,N,16
Aidan,5/2/2014,Dillon and Sarah,Alki Beach 1,18.3,,,2,63,44,O,G/B,F,Y,15
Aidan,5/2/2014,Dillon and Sarah,Alki Beach 1,18.3,,,2,63,44,O,G/B,F,Y,14
Aidan,5/2/2014,Dillon and Sarah,Alki Beach 1,18.3,,,2,63,44,O,G/B,M,N,15
Aidan,5/2/2014,Dillon and Sarah,Alki Beach 1,18.3,,,2,63,44,O,G/B,M,N,14
Aidan,5/2/2014,Dillon and Sarah,Alki Beach 1,18.3,,,2,63,44,O,G/B,M,N,14
Aidan,5/2/2014,Dillon and Sarah,Alki Beach 1,18.3,,,2,63,44,O,G/B,F,N,14
Aidan,5/2/2014,Dillon and Sarah,Alki Beach 1,18.3,,,2,63,44,O,DG,M,N,15
Aidan,5/2/2014,Dillon and Sarah,Alki Beach 1,18.3,,,2,63,44,O,DG,F,Y,12
Aidan,5/2/2014,Dillon and Sarah,Alki Beach 1,18.3,,,2,63,44,O,M,F,Y,12
Aidan,5/2/2014,Dillon and Sarah,Alki Beach 1,18.3,,,2,63,44,O,G/B,M,N,13
Aidan,5/2/2014,Dillon and Sarah,Alki Beach 1,18.3,,,2,63,44,O,G/B,F,N,10
Aidan,5/2/2014,Dillon and Sarah,Alki Beach 1,18.3,,,2,63,44,O,G/B,F,N,17
Aidan,5/2/2014,Dillon and Sarah,Alki Beach 1,18.3,,,3,20,16,O,G/B,M,N,18
Aidan,5/2/2014,Dillon and Sarah,Alki Beach 1,18.3,,,3,20,16,O,DG,M,N,15
Aidan,5/2/2014,Dillon and Sarah,Alki Beach 1,18.3,,,3,20,16,O,G/B,M,N,8
Aidan,5/2/2014,Dillon and Sarah,Alki Beach 1,18.3,,,4,11,12,,,,,
Aidan,5/2/2014,Dillon and Sarah,Alki Beach 1,18.3,,,5,20,25,O,M,M,N,21
Aidan,5/2/2014,Dillon and Sarah,Alki Beach 1,18.3,,,5,20,25,O,G/B,M,N,20
Aidan,5/2/2014,Dillon and Sarah,Alki Beach 1,18.3,,,5,20,25,O,G/B,M,N,12
Aidan,5/2/2014,Dillon and Sarah,Alki Beach 1,18.3,,,5,20,25,O,G/B,M,N,17
Aidan,5/2/2014,Dillon and Sarah,Alki Beach 1,18.3,,,5,20,25,O,G/B,M,N,5
Aidan,5/2/2014,Dillon and Sarah,Alki Beach 1,18.3,,,6,15,7,,,,,
Aidan,5/2/2014,Dillon and Sarah,Alki Beach 1,18.3,,,7,27,15,N,P,M,N,22
Aidan,5/2/2014,Dillon and Sarah,Alki Beach 1,18.3,,,7,27,15,O,G/B,F,Y,11
Aidan,5/2/2014,Dillon and Sarah,Alki Beach 1,18.3,,,7,27,15,O,LG,M,N,19
Aidan,5/2/2014,Dillon and Sarah,Alki Beach 1,18.3,,,7,27,15,O,W,M,N,4
Aidan,5/2/2014,Dillon and Sarah,Alki Beach 1,18.3,,,8,11,8,,,,,
Aidan,5/2/2014,Dillon and Sarah,Alki Beach 1,18.3,,,9,19,13,,,,,
Aidan,5/2/2014,Dillon and Sarah,Alki Beach 1,18.3,,,10,40,24,O,G/B,M,N,20
Aidan,5/2/2014,Dillon and Sarah,Alki Beach 1,18.3,,,10,40,24,O,G/B,F,N,16
Aidan,5/2/2014,Dillon and Sarah,Alki Beach 1,18.3,,,10,40,24,O,G/B,F,Y,11
Aidan,5/2/2014,Dillon and Sarah,Alki Beach 1,18.3,,,10,40,24,O,G/B,M,N,13
Aidan,5/2/2014,Dillon and Sarah,Alki Beach 1,18.3,,,10,40,24,O,G/B,M,N,16
Aidan,5/2/2014,Dillon and Sarah,Alki Beach 1,18.3,,,10,40,24,O,G/B,F,N,12
Aidan,5/2/2014,Dillon and Sarah,Alki Beach 1,18.3,,,10,40,24,O,DG,M,N,13
Aidan,5/2/2014,Dillon and Sarah,Alki Beach 1,18.3,,,10,40,24,O,M,F,N,15
Aidan,5/2/2014,Dillon and Sarah,Alki Beach 1,18.3,,,10,40,24,O,W,F,Y,16
Aidan,5/2/2014,Dillon and Sarah,Alki Beach 1,18.3,,,10,40,24,O,DG,F,N,14
Aidan,5/2/2014,Dillon and Sarah,Alki Beach 1,18.3,,,10,40,24,O,G/B,M,N,14
Aidan,5/2/2014,Dillon and Sarah,Alki Beach 1,18.3,,,10,40,24,O,G/B,M,N,6
Aidan,5/2/2014,Dillon and Sarah,Alki Beach 1,18.3,,,11,17,12,,,,,
Aidan,5/2/2014,Dillon and Sarah,Alki Beach 1,18.3,,,12,18,15,O,W,F,N,6
Aidan,5/2/2014,Dillon and Sarah,Alki Beach 1,18.3,,,12,18,15,O,W,F,N,7
Aidan,5/2/2014,Dillon and Sarah,Alki Beach 1,18.3,,,12,18,15,O,G/B,M,N,12
Aidan,5/2/2014,Dillon and Sarah,Alki Beach 1,18.3,,,13,24,17,O,DG,M,N,12
Aidan,5/2/2014,Dillon and Sarah,Alki Beach 1,18.3,,,13,24,17,O,G/B,M,N,9
Aidan,5/2/2014,Dillon and Sarah,Alki Beach 1,18.3,,,14,13,8,,,,,
Aidan,5/2/2014,Dillon and Sarah,Alki Beach 1,18.3,,,15,10,10,,,,,
Aidan,5/2/2014,Dillon and Sarah,Alki Beach 1,18.3,,,16,13,13,,,,,
Aidan,5/2/2014,Dillon and Sarah,Alki Beach 1,18.3,,,17,13,9,,,,,
Aidan,5/2/2014,Dillon and Sarah,Alki Beach 1,18.3,,,18,28,20,O,G/B,F,N,15
Aidan,5/2/2014,Dillon and Sarah,Alki Beach 1,18.3,,,18,28,20,O,G/B,F,N,14
Aidan,5/2/2014,Dillon and Sarah,Alki Beach 1,18.3,,,18,28,20,O,W,M,N,17
Aidan,5/2/2014,Dillon and Sarah,Alki Beach 1,18.3,,,18,28,20,O,G/B,F,N,14
Aidan,5/2/2014,Dillon and Sarah,Alki Beach 1,18.3,,,19,18,18,N,P,M,N,21
Aidan,5/2/2014,Dillon and Sarah,Alki Beach 1,18.3,,,20,13,11,,,,,
Aidan,5/2/2014,Dillon and Sarah,Alki Beach 1,18.3,,,21,18,18,O,G/B,M,N,11
Aidan,5/2/2014,Dillon and Sarah,Alki Beach 1,18.3,,,22,16,14,O,G/B,M,N,21
Aidan,5/2/2014,Dillon and Sarah,Alki Beach 1,18.3,,,22,16,14,O,G/B,M,N,16
Aidan,5/2/2014,Dillon and Sarah,Alki Beach 2,13.3,,,1,14,7,,,,,
Aidan,5/2/2014,Dillon and Sarah,Alki Beach 2,13.3,,,2,20,17,,,,,
Aidan,5/2/2014,Dillon and Sarah,Alki Beach 2,13.3,,,3,50,32,O,G/B,M,N,15
Aidan,5/2/2014,Dillon and Sarah,Alki Beach 2,13.3,,,3,50,32,O,G/B,F,Y,12
Aidan,5/2/2014,Dillon and Sarah,Alki Beach 2,13.3,,,3,50,32,O,G/B,F,Y,14
Aidan,5/2/2014,Dillon and Sarah,Alki Beach 2,13.3,,,3,50,32,O,G/B,F,Y,12
Aidan,5/2/2014,Dillon and Sarah,Alki Beach 2,13.3,,,3,50,32,O,G/B,F,N,14
Aidan,5/2/2014,Dillon and Sarah,Alki Beach 2,13.3,,,3,50,32,O,G/B,F,N,13
Aidan,5/2/2014,Dillon and Sarah,Alki Beach 2,13.3,,,3,50,32,O,G/B,F,N,15
Aidan,5/2/2014,Dillon and Sarah,Alki Beach 2,13.3,,,3,50,32,O,G/B,F,Y,11
Aidan,5/2/2014,Dillon and Sarah,Alki Beach 2,13.3,,,3,50,32,O,G/B,F,N,4
Aidan,5/2/2014,Dillon and Sarah,Alki Beach 2,13.3,,,4,17,18,,,,,
Aidan,5/2/2014,Dillon and Sarah,Alki Beach 2,13.3,,,5,13,7,,,,,
Aidan,5/2/2014,Dillon and Sarah,Alki Beach 2,13.3,,,6,12,8,,,,,
Aidan,5/2/2014,Dillon and Sarah,Alki Beach 2,13.3,,,7,47,31,O,M,F,Y,17
Aidan,5/2/2014,Dillon and Sarah,Alki Beach 2,13.3,,,7,47,31,O,DG,M,N,14
Aidan,5/2/2014,Dillon and Sarah,Alki Beach 2,13.3,,,7,47,31,O,DG,M,N,16
Aidan,5/2/2014,Dillon and Sarah,Alki Beach 2,13.3,,,7,47,31,O,DG,M,N,20
Aidan,5/2/2014,Dillon and Sarah,Alki Beach 2,13.3,,,7,47,31,O,DG,M,N,19
Aidan,5/2/2014,Dillon and Sarah,Alki Beach 2,13.3,,,7,47,31,O,DG,M,N,21
Aidan,5/2/2014,Dillon and Sarah,Alki Beach 2,13.3,,,7,47,31,O,DG,F,Y,15
Aidan,5/2/2014,Dillon and Sarah,Alki Beach 2,13.3,,,7,47,31,O,DG,F,N,13
Aidan,5/2/2014,Dillon and Sarah,Alki Beach 2,13.3,,,7,47,31,O,DG,M,N,5
Aidan,5/2/2014,Dillon and Sarah,Alki Beach 2,13.3,,,7,47,31,O,DG,F,N,5
Aidan,5/2/2014,Dillon and Sarah,Alki Beach 2,13.3,,,8,30,15,O,G/B,F,N,19
Aidan,5/2/2014,Dillon and Sarah,Alki Beach 2,13.3,,,8,30,15,O,G/B,M,N,24
Aidan,5/2/2014,Dillon and Sarah,Alki Beach 2,13.3,,,8,30,15,O,DG,M,N,15
Aidan,5/2/2014,Dillon and Sarah,Alki Beach 2,13.3,,,8,30,15,O,G/B,F,Y,14
Aidan,5/2/2014,Dillon and Sarah,Alki Beach 2,13.3,,,8,30,15,O,G/B,F,N,14
Aidan,5/2/2014,Dillon and Sarah,Alki Beach 2,13.3,,,8,30,15,O,G/B,F,N,16
Aidan,5/2/2014,Dillon and Sarah,Alki Beach 2,13.3,,,8,30,15,O,G/B,M,N,10
Aidan,5/2/2014,Dillon and Sarah,Alki Beach 2,13.3,,,8,30,15,O,G/B,F,N,19
Aidan,5/2/2014,Dillon and Sarah,Alki Beach 2,13.3,,,8,30,15,O,G/B,F,N,16
Aidan,5/2/2014,Dillon and Sarah,Alki Beach 2,13.3,,,8,30,15,O,G/B,F,N,5
Aidan,5/2/2014,Dillon and Sarah,Alki Beach 2,13.3,,,9,17,15,,,,,
Aidan,5/2/2014,Dillon and Sarah,Alki Beach 2,13.3,,,10,27,20,O,W,M,N,12
Aidan,5/2/2014,Dillon and Sarah,Alki Beach 2,13.3,,,10,27,20,O,DG,F,N,18
Aidan,5/2/2014,Dillon and Sarah,Alki Beach 2,13.3,,,10,27,20,O,G/B,M,N,19
Aidan,5/2/2014,Dillon and Sarah,Alki Beach 2,13.3,,,10,27,20,O,G/B,F,N,17
Aidan,5/2/2014,Dillon and Sarah,Alki Beach 2,13.3,,,10,27,20,O,DG,M,N,16
Aidan,5/2/2014,Dillon and Sarah,Alki Beach 2,13.3,,,10,27,20,O,DG,M,N,15
Aidan,5/2/2014,Dillon and Sarah,Alki Beach 2,13.3,,,10,27,20,O,DG,M,N,15
Aidan,5/2/2014,Dillon and Sarah,Alki Beach 2,13.3,,,10,27,20,O,G/B,F,N,9
Aidan,5/2/2014,Dillon and Sarah,Alki Beach 2,13.3,,,10,27,20,O,W,F,N,8
Aidan,5/2/2014,Dillon and Sarah,Alki Beach 2,13.3,,,10,27,20,O,M,M,N,4
Aidan,5/2/2014,Dillon and Sarah,Alki Beach 2,13.3,,,10,27,20,O,M,F,N,5
Aidan,5/2/2014,Dillon and Sarah,Alki Beach 2,13.3,,,11,15,11,O,M,F,N,6
Aidan,5/2/2014,Dillon and Sarah,Alki Beach 2,13.3,,,11,15,11,O,G/B,F,N,13
Aidan,5/2/2014,Dillon and Sarah,Alki Beach 2,10,,,12,20,18,,,,,
Aidan,5/2/2014,Dillon and Sarah,Alki Beach 2,10,,,13,32,30,O,DG,F,N,15
Aidan,5/2/2014,Dillon and Sarah,Alki Beach 2,10,,,13,32,30,O,DG,F,N,15
Aidan,5/2/2014,Dillon and Sarah,Alki Beach 2,10,,,13,32,30,O,G/B,F,N,14
Aidan,5/2/2014,Dillon and Sarah,Alki Beach 2,10,,,14,18,10,O,DG,M,N,20
Aidan,5/2/2014,Dillon and Sarah,Alki Beach 2,10,,,14,18,10,O,M,F,N,4
Aidan,5/2/2014,Dillon and Sarah,Alki Beach 2,10,,,15,21,18,O,DG,M,N,15
Aidan,5/2/2014,Dillon and Sarah,Alki Beach 2,10,,,15,21,18,O,G/B,M,N,16
Aidan,5/2/2014,Dillon and Sarah,Alki Beach 2,10,,,16,16,11,O,G/B,F,N,13
Aidan,5/2/2014,Dillon and Sarah,Alki Beach 2,10,,,17,20,10,,,,,
Aidan,5/2/2014,Dillon and Sarah,Alki Beach 2,10,,,18,12,7,,,,,
Aidan,5/2/2014,Dillon and Sarah,Alki Beach 2,10,,,19,15,12,O,G/B,M,N,9
Aidan,5/2/2014,Dillon and Sarah,Alki Beach 2,10,,,20,26,21,O,DG,M,N,18
Aidan,5/2/2014,Dillon and Sarah,Alki Beach 2,10,,,20,26,21,O,G/B,M,N,14
Aidan,5/2/2014,Dillon and Sarah,Alki Beach 2,10,,,20,26,21,O,G/B,F,N,7
Aidan,5/2/2014,Dillon and Sarah,Alki Beach 2,10,,,20,26,21,O,R,M,N,
Aidan,5/2/2014,Dillon and Sarah,Alki Beach 2,5,,,21,19,18,O,G/B,M,N,14
Aidan,5/2/2014,Dillon and Sarah,Alki Beach 2,5,,,21,19,18,O,G/B,M,N,6
Aidan,5/2/2014,Dillon and Sarah,Alki Beach 2,5,,,22,13,11,,,,,
Aidan,5/2/2014,Dillon and Sarah,Alki Beach 2,5,,,23,27,20,O,DG,M,N,12
Aidan,5/2/2014,Dillon and Sarah,Alki Beach 2,5,,,23,27,20,O,G/B,M,N,12
Aidan,5/2/2014,Dillon and Sarah,Alki Beach 2,5,,,23,27,20,O,DG,M,N,14
Aidan,5/2/2014,Dillon and Sarah,Alki Beach 2,5,,,23,27,20,O,G/B,F,Y,15
Aidan,5/2/2014,Dillon and Sarah,Alki Beach 2,5,,,23,27,20,O,DG,M,N,3
Aidan,5/2/2014,Dillon and Sarah,Alki Beach 2,5,,,24,20,17,O,DG,M,N,18
Aidan,5/2/2014,Dillon and Sarah,Alki Beach 2,5,,,24,20,17,O,G/B,F,N,11
Aidan,5/2/2014,Dillon and Sarah,Alki Beach 2,5,,,24,20,17,O,G/B,F,N,10
Aidan,5/2/2014,Dillon and Sarah,Alki Beach 2,5,,,24,20,17,O,DG,M,N,15
Aidan,5/2/2014,Dillon and Sarah,Alki Beach 2,5,,,24,20,17,O,G/B,M,N,4
Aidan,5/2/2014,Dillon and Sarah,Alki Beach 2,5,,,24,20,17,O,G/B,M,N,5
Aidan,5/2/2014,Dillon and Sarah,Alki Beach 2,5,,,25,12,5,,,,,
Aidan,5/2/2014,Dillon and Sarah,Alki Beach 2,5,,,26,10,8,,,,,
Aidan,5/2/2014,Dillon and Sarah,Alki Beach 2,5,,,27,13,8,,,,,
Aidan,5/2/2014,Dillon and Sarah,Alki Beach 2,5,,,28,26,20,O,G/B,F,N,12
Aidan,5/2/2014,Dillon and Sarah,Alki Beach 2,5,,,28,26,20,O,G/B,F,N,10
Aidan,5/2/2014,Dillon and Sarah,Alki Beach 2,5,,,28,26,20,O,DG,M,N,14
Aidan,5/2/2014,Dillon and Sarah,Alki Beach 2,5,,,28,26,20,O,DG,M,N,14
Aidan,5/2/2014,Dillon and Sarah,Alki Beach 2,5,,,28,26,20,O,G/B,M,N,10
Aidan,5/2/2014,Dillon and Sarah,Alki Beach 2,5,,,29,12,10,,,,,
Aidan,5/2/2014,Dillon and Sarah,Alki Beach 2,5,,,30,11,9,,,,,
Aidan,5/2/2014,"Melissa, Doug, Stephanie",Alki Beach 2,40.8,,,1,13,9,O,DG,M,N,11
Aidan,5/2/2014,"Melissa, Doug, Stephanie",Alki Beach 2,40.8,,,2,22,18,O,DG,M,N,23
Aidan,5/2/2014,"Melissa, Doug, Stephanie",Alki Beach 2,40.8,,,2,22,18,O,G/B,F,Y,12
Aidan,5/2/2014,"Melissa, Doug, Stephanie",Alki Beach 2,40.8,,,2,22,18,O,DG,F,Y,14
Aidan,5/2/2014,"Melissa, Doug, Stephanie",Alki Beach 2,40.8,,,2,22,18,O,DG,M,N,11
Aidan,5/2/2014,"Melissa, Doug, Stephanie",Alki Beach 2,40.8,,,2,22,18,O,DG,F,Y,13
Aidan,5/2/2014,"Melissa, Doug, Stephanie",Alki Beach 2,40.8,,,2,22,18,O,G/B,M,N,15
Aidan,5/2/2014,"Melissa, Doug, Stephanie",Alki Beach 2,40.8,,,2,22,18,K,DG,,,5
Aidan,5/2/2014,"Melissa, Doug, Stephanie",Alki Beach 2,40.8,,,2,22,18,O,DG,F,Y,9
Aidan,5/2/2014,"Melissa, Doug, Stephanie",Alki Beach 2,40.8,,,3,27,16,,,,,
Aidan,5/2/2014,"Melissa, Doug, Stephanie",Alki Beach 2,40.8,,,4,49,44,O,DG,M,N,16
Aidan,5/2/2014,"Melissa, Doug, Stephanie",Alki Beach 2,40.8,,,4,49,44,O,R,M,N,17
Aidan,5/2/2014,"Melissa, Doug, Stephanie",Alki Beach 2,40.8,,,5,30,17,N,P,M,N,25
Aidan,5/2/2014,"Melissa, Doug, Stephanie",Alki Beach 2,40.8,,,6,21,20,O,M,M,N,16
Aidan,5/2/2014,"Melissa, Doug, Stephanie",Alki Beach 2,40.8,,,6,21,20,O,DG,M,N,21
Aidan,5/2/2014,"Melissa, Doug, Stephanie",Alki Beach 2,40.8,,,7,17,11,O,DG,M,N,20
Aidan,5/2/2014,"Melissa, Doug, Stephanie",Alki Beach 2,40.8,,,8,15,12,,,,,
Aidan,5/2/2014,"Melissa, Doug, Stephanie",Alki Beach 2,40.8,,,9,38,19,O,DG,F,N,17
Aidan,5/2/2014,"Melissa, Doug, Stephanie",Alki Beach 2,40.8,,,9,38,19,O,DG,F,Y,14
Aidan,5/2/2014,"Melissa, Doug, Stephanie",Alki Beach 2,40.8,,,9,38,19,O,DG,F,N,15
Aidan,5/2/2014,"Melissa, Doug, Stephanie",Alki Beach 2,40.8,,,9,38,19,O,DG,F,N,14
Aidan,5/2/2014,"Melissa, Doug, Stephanie",Alki Beach 2,40.8,,,10,18,14,O,DG,F,N,15
Aidan,5/2/2014,"Melissa, Doug, Stephanie",Alki Beach 2,40.8,,,11,24,23,O,DG,M,N,18
Aidan,5/2/2014,"Melissa, Doug, Stephanie",Alki Beach 2,40.8,,,11,24,23,O,G/B,F,N,11
Aidan,5/2/2014,"Melissa, Doug, Stephanie",Alki Beach 2,40.8,,,11,24,23,O,M,F,N,8
Aidan,5/2/2014,"Melissa, Doug, Stephanie",Alki Beach 2,40.8,,,11,24,23,O,LG,M,N,4
Aidan,5/2/2014,"Melissa, Doug, Stephanie",Alki Beach 2,40.8,,,12,96,67,Dungeness,R,M,N,150
Aidan,5/2/2014,"Melissa, Doug, Stephanie",Alki Beach 2,40.8,,,12,96,67,Red,R,M,N,140
Aidan,5/2/2014,"Melissa, Doug, Stephanie",Alki Beach 2,40.8,,,12,96,67,Red,R,M,N,138
Aidan,5/2/2014,"Melissa, Doug, Stephanie",Alki Beach 2,40.8,,,12,96,67,K,DG,M,N,8
Aidan,5/2/2014,"Melissa, Doug, Stephanie",Alki Beach 2,40.8,,,12,96,67,K,R,M,N,7
Aidan,5/2/2014,"Melissa, Doug, Stephanie",Alki Beach 2,40.8,,,12,96,67,K,LG,M,N,8
Aidan,5/2/2014,"Melissa, Doug, Stephanie",Alki Beach 2,40.8,,,12,96,67,K,DG,M,N,12
Aidan,5/2/2014,"Melissa, Doug, Stephanie",Alki Beach 2,15,,,13,18,10,O,R,M,N,5
Aidan,5/2/2014,"Melissa, Doug, Stephanie",Alki Beach 2,15,,,13,18,10,O,DG,F,N,3
Aidan,5/2/2014,"Melissa, Doug, Stephanie",Alki Beach 2,15,,,13,18,10,O,LG,M,N,3
Aidan,5/2/2014,"Melissa, Doug, Stephanie",Alki Beach 2,15,,,13,18,10,O,M,M,N,2
Aidan,5/2/2014,"Melissa, Doug, Stephanie",Alki Beach 2,15,,,13,18,10,O,W,M,N,3
Aidan,5/2/2014,"Melissa, Doug, Stephanie",Alki Beach 2,15,,,13,18,10,O,R,M,N,3
Aidan,5/2/2014,"Melissa, Doug, Stephanie",Alki Beach 2,15,,,14,17,12,O,LG,M,N,16
Aidan,5/2/2014,"Melissa, Doug, Stephanie",Alki Beach 2,15,,,14,17,12,O,DG,F,N,14
Aidan,5/2/2014,"Melissa, Doug, Stephanie",Alki Beach 2,15,,,14,17,12,O,G/B,F,N,13
Aidan,5/2/2014,"Melissa, Doug, Stephanie",Alki Beach 2,15,,,14,17,12,O,G/B,M,N,14
Aidan,5/2/2014,"Melissa, Doug, Stephanie",Alki Beach 2,15,,,15,18,14,O,LG,F,Y,14
Aidan,5/2/2014,"Melissa, Doug, Stephanie",Alki Beach 2,15,,,15,18,14,O,G/B,F,N,11
Aidan,5/2/2014,"Melissa, Doug, Stephanie",Alki Beach 2,15,,,15,18,14,O,DG,M,N,15
Aidan,5/2/2014,"Melissa, Doug, Stephanie",Alki Beach 2,15,,,15,18,14,O,DG,F,Y,12
Aidan,5/2/2014,"Melissa, Doug, Stephanie",Alki Beach 2,15,,,15,18,14,O,G/B,M,N,15
Aidan,5/2/2014,"Melissa, Doug, Stephanie",Alki Beach 2,15,,,16,21,13,O,LG,M,N,21
Aidan,5/2/2014,"Melissa, Doug, Stephanie",Alki Beach 2,15,,,16,21,13,O,M,F,Y,14
Aidan,5/2/2014,"Melissa, Doug, Stephanie",Alki Beach 2,15,,,16,21,13,O,G/B,M,N,14
Aidan,5/2/2014,"Melissa, Doug, Stephanie",Alki Beach 2,15,,,16,21,13,O,G/B,F,N,15
Aidan,5/2/2014,"Melissa, Doug, Stephanie",Alki Beach 2,15,,,17,19,16,O,LG,M,N,15
Aidan,5/2/2014,"Melissa, Doug, Stephanie",Alki Beach 2,15,,,17,19,16,O,G/B,F,Y,11
Aidan,5/2/2014,"Melissa, Doug, Stephanie",Alki Beach 2,15,,,17,19,16,O,DG,F,N,15
Aidan,5/2/2014,"Melissa, Doug, Stephanie",Alki Beach 2,15,,,17,19,16,O,M,M,N,5
Aidan,5/2/2014,"Melissa, Doug, Stephanie",Alki Beach 2,15,,,18,15,39,O,LG,M,N,21
Aidan,5/2/2014,"Melissa, Doug, Stephanie",Alki Beach 2,15,,,18,15,39,O,DG,M,N,18
Aidan,5/2/2014,"Melissa, Doug, Stephanie",Alki Beach 2,15,,,18,15,39,O,G/B,F,Y,13
Aidan,5/2/2014,"Melissa, Doug, Stephanie",Alki Beach 2,15,,,18,15,39,O,R,M,N,13
Aidan,5/2/2014,"Melissa, Doug, Stephanie",Alki Beach 2,15,,,18,15,39,O,DG,M,N,9
Aidan,5/2/2014,"Melissa, Doug, Stephanie",Alki Beach 2,15,,,18,15,39,O,M,M,N,3
Aidan,5/2/2014,"Melissa, Doug, Stephanie",Alki Beach 2,15,,,19,13.5,9,,,,,
Aidan,5/2/2014,"Melissa, Doug, Stephanie",Alki Beach 2,15,,,20,34,38,O,W,F,N,11
Aidan,5/2/2014,"Melissa, Doug, Stephanie",Alki Beach 2,15,,,20,34,38,O,R,M,N,18
Aidan,5/2/2014,"Melissa, Doug, Stephanie",Alki Beach 2,15,,,20,34,38,O,G/B,M,N,14
Aidan,5/2/2014,"Melissa, Doug, Stephanie",Alki Beach 2,15,,,20,34,38,O,G/B,M,N,18
Aidan,5/2/2014,"Melissa, Doug, Stephanie",Alki Beach 2,15,,,20,34,38,O,LG,M,N,21
Aidan,5/2/2014,"Melissa, Doug, Stephanie",Alki Beach 2,15,,,20,34,38,O,DG,F,Y,17
Aidan,5/2/2014,"Melissa, Doug, Stephanie",Alki Beach 2,15,,,20,34,38,O,G/B,M,N,17
Aidan,5/2/2014,"Melissa, Doug, Stephanie",Alki Beach 2,15,,,20,34,38,O,DG,M,N,15
Aidan,5/2/2014,"Melissa, Doug, Stephanie",Alki Beach 2,15,,,20,34,38,O,DG,M,N,11
Aidan,5/2/2014,"Melissa, Doug, Stephanie",Alki Beach 2,15,,,20,34,38,O,LG,M,N,17
Aidan,5/2/2014,"Melissa, Doug, Stephanie",Alki Beach 2,15,,,20,34,38,O,DG,M,N,10
Aidan,5/2/2014,"Melissa, Doug, Stephanie",Alki Beach 2,15,,,20,34,38,O,W,M,N,8
Aidan,5/2/2014,"Melissa, Doug, Stephanie",Alki Beach 2,15,,,20,34,38,O,DG,F,N,9
Aidan,5/2/2014,"Melissa, Doug, Stephanie",Alki Beach 2,15,,,21,14,12,O,DG,M,N,13
Aidan,5/2/2014,"Melissa, Doug, Stephanie",Alki Beach 2,15,,,22,18,15,O,DG,M,N,18
Aidan,5/2/2014,"Melissa, Doug, Stephanie",Alki Beach 2,15,,,22,18,15,O,G/B,F,N,8
Aidan,5/2/2014,"Melissa, Doug, Stephanie",Alki Beach 2,15,,,22,18,15,O,W,F,N,2
Aidan,5/2/2014,"Melissa, Doug, Stephanie",Alki Beach 2,15,,,23,"9,5",5.5,,,,,
Aidan,5/2/2014,"Melissa, Doug, Stephanie",Alki Beach 2,15,,,24,10,6.5,,,,,
Aidan,5/2/2014,"Melissa, Doug, Stephanie",Alki Beach 2,15,,,25,14,10,,,,,
Aidan,5/2/2014,"Melissa, Doug, Stephanie",Alki Beach 2,15,,,26,7,5,,,,,
Aidan,5/2/2014,"Melissa, Doug, Stephanie",Alki Beach 2,15,,,27,8,8,,,,,
Aidan,5/2/2014,"Melissa, Doug, Stephanie",Alki Beach 2,15,,,28,14,11,,,,,
Aidan,5/2/2014,"Melissa, Doug, Stephanie",Alki Beach 2,15,,,29,8,7,,,,,
Aidan,5/2/2014,"Melissa, Doug, Stephanie",Alki Beach 2,15,,,30,19.5,13.5,O,W,F,N,15
Aidan,5/2/2014,"Melissa, Doug, Stephanie",Alki Beach 2,15,,,30,19.5,13.5,O,LG,M,N,22
Aidan,5/2/2014,"Melissa, Doug, Stephanie",Alki Beach 2,15,,,30,19.5,13.5,O,LG,M,N,14
Aidan,5/2/2014,"Melissa, Doug, Stephanie",Alki Beach 1,40-30,,,1,7,7,,,,,
Aidan,5/2/2014,"Melissa, Doug, Stephanie",Alki Beach 1,40-30,,,2,10,7,,,,,
Aidan,5/2/2014,"Melissa, Doug, Stephanie",Alki Beach 1,40-30,,,3,17,9,,,,,
Aidan,5/2/2014,"Melissa, Doug, Stephanie",Alki Beach 1,40-30,,,4,53,33,O,G/B,M,N,21
Aidan,5/2/2014,"Melissa, Doug, Stephanie",Alki Beach 1,40-30,,,4,53,33,O,LG,F,N,18
Aidan,5/2/2014,"Melissa, Doug, Stephanie",Alki Beach 1,40-30,,,4,53,33,O,G/B,M,N,21
Aidan,5/2/2014,"Melissa, Doug, Stephanie",Alki Beach 1,40-30,,,4,53,33,O,M,M,N,19
Aidan,5/2/2014,"Melissa, Doug, Stephanie",Alki Beach 1,40-30,,,4,53,33,O,G/B,M,N,25
Aidan,5/2/2014,"Melissa, Doug, Stephanie",Alki Beach 1,40-30,,,4,53,33,O,G/B,F,N,15
Aidan,5/2/2014,"Melissa, Doug, Stephanie",Alki Beach 1,40-30,,,4,53,33,O,M,M,N,14
Aidan,5/2/2014,"Melissa, Doug, Stephanie",Alki Beach 1,40-30,,,4,53,33,O,LG,M,N,17
Aidan,5/2/2014,"Melissa, Doug, Stephanie",Alki Beach 1,40-30,,,4,53,33,O,M,M,N,20
Aidan,5/2/2014,"Melissa, Doug, Stephanie",Alki Beach 1,40-30,,,4,53,33,O,LG,F,Y,14
Aidan,5/2/2014,"Melissa, Doug, Stephanie",Alki Beach 1,40-30,,,4,53,33,O,LG,F,Y,13
Aidan,5/2/2014,"Melissa, Doug, Stephanie",Alki Beach 1,40-30,,,4,53,33,O,M,F,N,12
Aidan,5/2/2014,"Melissa, Doug, Stephanie",Alki Beach 1,40-30,,,4,53,33,O,M,F,N,11
Aidan,5/2/2014,"Melissa, Doug, Stephanie",Alki Beach 1,40-30,,,4,53,33,O,DG,F,Y,11
Aidan,5/2/2014,"Melissa, Doug, Stephanie",Alki Beach 1,40-30,,,4,53,33,K,DG,M,N,11
Aidan,5/2/2014,"Melissa, Doug, Stephanie",Alki Beach 1,40-30,,,5,22,15,Dungeness,R,M,N,54
Aidan,5/2/2014,"Melissa, Doug, Stephanie",Alki Beach 1,40-30,,,5,22,15,O,G/B,M,N,20
Aidan,5/2/2014,"Melissa, Doug, Stephanie",Alki Beach 1,40-30,,,6,26,26,O,LG,M,N,16
Aidan,5/2/2014,"Melissa, Doug, Stephanie",Alki Beach 1,40-30,,,6,26,26,O,DG,F,Y,13
Aidan,5/2/2014,"Melissa, Doug, Stephanie",Alki Beach 1,40-30,,,7,24,25,,,,,
Aidan,5/2/2014,"Melissa, Doug, Stephanie",Alki Beach 1,40-30,,,8,28,17,O,G/B,F,Y,17
Aidan,5/2/2014,"Melissa, Doug, Stephanie",Alki Beach 1,40-30,,,9,54,46,O,G/B,M,N,12
Aidan,5/2/2014,"Melissa, Doug, Stephanie",Alki Beach 1,40-30,,,9,54,46,O,DG,F,Y,8
Aidan,5/2/2014,"Melissa, Doug, Stephanie",Alki Beach 1,40-30,,,9,54,46,O,W,M,N,2
Aidan,5/2/2014,"Melissa, Doug, Stephanie",Alki Beach 1,40-30,,,10,29,22,O,LG,M,N,19
Aidan,5/2/2014,"Melissa, Doug, Stephanie",Alki Beach 1,40-30,,,10,29,22,O,DG,F,Y,9
Aidan,5/2/2014,"Melissa, Doug, Stephanie",Alki Beach 1,40-30,,,10,29,22,O,LG,M,N,17
Aidan,5/2/2014,"Melissa, Doug, Stephanie",Alki Beach 1,40-30,,,10,29,22,O,M,F,N,11
Aidan,5/2/2014,"Melissa, Doug, Stephanie",Alki Beach 1,40-30,,,10,29,22,O,M,F,N,11
Aidan,5/2/2014,"Melissa, Doug, Stephanie",Alki Beach 1,40-30,,,10,29,22,O,G/B,M,N,10
Aidan,5/2/2014,"Melissa, Doug, Stephanie",Alki Beach 1,40-30,,,10,29,22,O,LG,F,Y,8
Aidan,5/2/2014,"Melissa, Doug, Stephanie",Alki Beach 1,40-30,,,11,44,42,O,LG,M,N,20
Aidan,5/2/2014,"Melissa, Doug, Stephanie",Alki Beach 1,40-30,,,11,44,42,O,G/B,F,N,16
Aidan,5/2/2014,"Melissa, Doug, Stephanie",Alki Beach 1,40-30,,,11,44,42,O,DG,F,N,11
Aidan,5/2/2014,"Melissa, Doug, Stephanie",Alki Beach 1,40-30,,,11,44,42,O,LG,F,Y,10
Aidan,5/2/2014,"Melissa, Doug, Stephanie",Alki Beach 1,40-30,,,11,44,42,O,LG,M,N,19
Aidan,5/2/2014,"Melissa, Doug, Stephanie",Alki Beach 1,40-30,,,11,44,42,O,LG,M,N,17
Aidan,5/2/2014,"Melissa, Doug, Stephanie",Alki Beach 1,40-30,,,11,44,42,O,DG,M,N,10
Aidan,5/2/2014,"Melissa, Doug, Stephanie",Alki Beach 1,40-30,,,11,44,42,O,DG,F,N,15
Aidan,5/2/2014,"Melissa, Doug, Stephanie",Alki Beach 1,40-30,,,11,44,42,O,LG,M,N,4
Aidan,5/2/2014,"Melissa, Doug, Stephanie",Alki Beach 1,40-30,,,12,9,10,,,,,
Aidan,5/2/2014,"Melissa, Doug, Stephanie",Alki Beach 1,40-30,,,13,14,10,,,,,
Aidan,5/2/2014,"Melissa, Doug, Stephanie",Alki Beach 1,40-30,,,14,23,15,,,,,
Aidan,5/2/2014,"Melissa, Doug, Stephanie",Alki Beach 1,40-30,,,15,10,9,,,,,
Aidan,5/2/2014,"Melissa, Doug, Stephanie",Alki Beach 1,40-30,,,16,11,9,,,,,
Aidan,5/2/2014,"Melissa, Doug, Stephanie",Alki Beach 1,40-30,,,17,37,30,O,W,F,N,10
Aidan,5/2/2014,"Melissa, Doug, Stephanie",Alki Beach 1,40-30,,,17,37,30,O,LG,M,N,13
Aidan,5/2/2014,"Melissa, Doug, Stephanie",Alki Beach 1,40-30,,,17,37,30,O,G/B,F,N,12
Aidan,5/2/2014,"Melissa, Doug, Stephanie",Alki Beach 1,40-30,,,17,37,30,O,G/B,M,N,8
Aidan,5/2/2014,"Melissa, Doug, Stephanie",Alki Beach 1,40-30,,,18,22,19,O,LG,M,N,16
Aidan,5/2/2014,"Melissa, Doug, Stephanie",Alki Beach 1,40-30,,,18,22,19,O,M,F,N,11
Aidan,5/2/2014,"Melissa, Doug, Stephanie",Alki Beach 1,40-30,,,18,22,19,O,G/B,M,N,9
Aidan,5/2/2014,"Melissa, Doug, Stephanie",Alki Beach 1,40-30,,,19,13,9,,,,,
Aidan,5/2/2014,"Melissa, Doug, Stephanie",Alki Beach 1,40-30,,,20,28,16,O,G/B,M,N,14
Aidan,5/2/2014,"Melissa, Doug, Stephanie",Alki Beach 1,40-30,,,20,28,16,O,G/B,M,N,15
Aidan,5/2/2014,"Melissa, Doug, Stephanie",Alki Beach 1,12.5,,,21,21,17,,,,,
Aidan,5/2/2014,"Melissa, Doug, Stephanie",Alki Beach 1,12.5,,,22,20,17,,,,,
Aidan,5/2/2014,"Melissa, Doug, Stephanie",Alki Beach 1,12.5,,,23,25,18,O,G/B,F,N,11
Aidan,5/2/2014,"Melissa, Doug, Stephanie",Alki Beach 1,12.5,,,24,10,6,,,,,
Aidan,5/2/2014,"Melissa, Doug, Stephanie",Alki Beach 1,12.5,,,25,22,19,O,LG,M,N,20
Aidan,5/2/2014,"Melissa, Doug, Stephanie",Alki Beach 1,12.5,,,25,22,19,O,LG,M,N,11
Aidan,5/2/2014,"Melissa, Doug, Stephanie",Alki Beach 1,12.5,,,25,22,19,O,LG,M,N,12
Aidan,5/2/2014,"Melissa, Doug, Stephanie",Alki Beach 1,12.5,,,26,19,24,O,G/B,F,N,15
Aidan,5/2/2014,"Melissa, Doug, Stephanie",Alki Beach 1,12.5,,,26,19,24,O,LG,M,N,22
Aidan,5/2/2014,"Melissa, Doug, Stephanie",Alki Beach 1,12.5,,,26,19,24,O,LG,M,N,14
Aidan,5/2/2014,"Melissa, Doug, Stephanie",Alki Beach 1,12.5,,,26,19,24,O,G/B,F,Y,12
Aidan,5/2/2014,"Melissa, Doug, Stephanie",Alki Beach 1,12.5,,,26,19,24,O,LG,F,Y,14
Aidan,5/2/2014,"Melissa, Doug, Stephanie",Alki Beach 1,12.5,,,26,19,24,O,G/B,M,N,15
Aidan,5/2/2014,"Melissa, Doug, Stephanie",Alki Beach 1,12.5,,,26,19,24,O,W,F,N,11
Aidan,5/2/2014,"Melissa, Doug, Stephanie",Alki Beach 1,12.5,,,26,19,24,O,LG,F,Y,11
Aidan,5/2/2014,"Melissa, Doug, Stephanie",Alki Beach 1,12.5,,,26,19,24,O,G/B,F,Y,12
Aidan,5/2/2014,"Melissa, Doug, Stephanie",Alki Beach 1,12.5,,,26,19,24,O,M,M,N,9
Aidan,5/2/2014,"Melissa, Doug, Stephanie",Alki Beach 1,12.5,,,26,19,24,O,G/B,F,Y,12
Aidan,5/2/2014,"Melissa, Doug, Stephanie",Alki Beach 1,12.5,,,26,19,24,O,W,M,N,3
Aidan,5/2/2014,"Melissa, Doug, Stephanie",Alki Beach 1,12.5,,,27,14,12,O,LG,F,N,18
Aidan,5/2/2014,"Melissa, Doug, Stephanie",Alki Beach 1,12.5,,,28,11,7,,,,,
Aidan,5/2/2014,"Melissa, Doug, Stephanie",Alki Beach 1,12.5,,,29,20,11,,,,,
Aidan,5/2/2014,"Melissa, Doug, Stephanie",Alki Beach 1,12.5,,,30,36,30,,,,,
Aidan,5/2/2014,"Melissa, Doug, Stephanie",Alki Beach 1,12.5,,,31,27,22,O,LG,M,N,24
Aidan,5/2/2014,"Melissa, Doug, Stephanie",Alki Beach 1,12.5,,,31,27,22,O,G/B,F,Y,14
Aidan,5/2/2014,"Melissa, Doug, Stephanie",Alki Beach 1,12.5,,,31,27,22,O,G/B,F,N,13
Aidan,5/2/2014,"Melissa, Doug, Stephanie",Alki Beach 1,12.5,,,31,27,22,O,G/B,M,N,12
Aidan,5/2/2014,"Melissa, Doug, Stephanie",Alki Beach 1,12.5,,,31,27,22,O,G/B,F,N,16
Aidan,5/2/2014,"Melissa, Doug, Stephanie",Alki Beach 1,12.5,,,31,27,22,O,LG,F,Y,14
Aidan,5/2/2014,"Melissa, Doug, Stephanie",Alki Beach 1,12.5,,,31,27,22,O,LG,F,N,10
Aidan,5/2/2014,"Melissa, Doug, Stephanie",Alki Beach 1,12.5,,,31,27,22,O,G/B,F,Y,15
Aidan,5/2/2014,"Melissa, Doug, Stephanie",Alki Beach 1,12.5,,,31,27,22,O,M,F,Y,14
Aidan,5/2/2014,"Melissa, Doug, Stephanie",Alki Beach 1,12.5,,,31,27,22,O,G/B,M,N,17
Aidan,5/2/2014,"Melissa, Doug, Stephanie",Alki Beach 1,12.5,,,31,27,22,O,G/B,F,N,12
Aidan,5/2/2014,"Melissa, Doug, Stephanie",Alki Beach 1,12.5,,,32,10,7,,,,,
Aidan,5/2/2014,"Melissa, Doug, Stephanie",Alki Beach 1,12.5,,,33,5.5,5,,,,,
Aidan,5/2/2014,"Melissa, Doug, Stephanie",Alki Beach 1,12.5,,,34,21,13,,,,,
Aidan,5/2/2014,"Melissa, Doug, Stephanie",Alki Beach 1,12.5,,,35,15,10,O,G/B,F,N,18
Aidan,5/2/2014,"Melissa, Doug, Stephanie",Alki Beach 1,12.5,,,35,15,10,O,R,F,N,10
Aidan,5/2/2014,"Melissa, Doug, Stephanie",Alki Beach 1,12.5,,,35,15,10,O,M,F,N,10
Aidan,5/2/2014,"Melissa, Doug, Stephanie",Alki Beach 1,12.5,,,36,24,18,O,G/B,M,N,24
Aidan,5/2/2014,"Melissa, Doug, Stephanie",Alki Beach 1,12.5,,,36,24,18,O,LG,M,N,15
Aidan,5/2/2014,"Melissa, Doug, Stephanie",Alki Beach 1,12.5,,,36,24,18,O,LG,F,N,15
Aidan,5/2/2014,"Melissa, Doug, Stephanie",Alki Beach 1,12.5,,,37,26,7,,,,,
Aidan,5/2/2014,"Melissa, Doug, Stephanie",Alki Beach 1,12.5,,,38,22,17,O,LG,M,N,20
Aidan,5/2/2014,"Melissa, Doug, Stephanie",Alki Beach 1,12.5,,,38,22,17,O,G/B,F,Y,14
Aidan,5/2/2014,"Melissa, Doug, Stephanie",Alki Beach 1,12.5,,,38,22,17,O,G/B,F,Y,12
Aidan,5/2/2014,"Melissa, Doug, Stephanie",Alki Beach 1,12.5,,,38,22,17,O,G/B,F,N,14
Aidan,5/2/2014,"Melissa, Doug, Stephanie",Alki Beach 1,12.5,,,38,22,17,O,LG,F,Y,11
Aidan,5/2/2014,"Melissa, Doug, Stephanie",Alki Beach 1,12.5,,,38,22,17,O,LG,F,Y,15
Aidan,5/2/2014,"Melissa, Doug, Stephanie",Alki Beach 1,12.5,,,38,22,17,O,LG,M,N,20
Aidan,5/2/2014,"Melissa, Doug, Stephanie",Alki Beach 1,12.5,,,38,22,17,O,LG,M,N,9
Aidan,5/2/2014,"Melissa, Doug, Stephanie",Alki Beach 1,12.5,,,38,22,17,O,LG,F,Y,12
Aidan,5/2/2014,"Melissa, Doug, Stephanie",Alki Beach 1,12.5,,,38,22,17,O,LG,M,N,18
Aidan,5/2/2014,"Melissa, Doug, Stephanie",Alki Beach 1,12.5,,,38,22,17,O,G/B,M,N,16
Aidan,5/2/2014,"Melissa, Doug, Stephanie",Alki Beach 1,12.5,,,38,22,17,O,M,M,N,2
