Data Entry Person,Date,Observer(s),Location,Tidal height = distance from seawall (m),Habitat description,Sampling procedure,Rock #,Rock length (cm),Rock width (cm),Crab species,Crab color,Sex (M/F),Eggs (Y/N),Carapace width (mm)
Olivia Janson,5/8/2015,"Sakara, Rachel, Conner",Alki Beach 1 Reserve,39,"Boulders,cobble rock, slope=15 degrees, 40% rock cover, mud",nearest rock along path,1,58,35,O,DG,F,N,21
Olivia Janson,5/8/2015,"Sakara, Rachel, Conner",Alki Beach 1 Reserve,39,"Boulders,cobble rock, slope=15 degrees, 40% rock cover, mud",nearest rock along path,1,58,35,O,GB,M,N,17
Olivia Janson,5/8/2015,"Sakara, Rachel, Conner",Alki Beach 1 Reserve,39,"Boulders,cobble rock, slope=15 degrees, 40% rock cover, mud",nearest rock along path,1,58,35,O,DG,F,N,16
Olivia Janson,5/8/2015,"Sakara, Rachel, Conner",Alki Beach 1 Reserve,39,"Boulders,cobble rock, slope=15 degrees, 40% rock cover, mud",nearest rock along path,1,58,35,O,R,F,N,10
Olivia Janson,5/8/2015,"Sakara, Rachel, Conner",Alki Beach 1 Reserve,39,"Boulders,cobble rock, slope=15 degrees, 40% rock cover, mud",nearest rock along path,1,58,35,O,LG,F,N,9
Olivia Janson,5/8/2015,"Sakara, Rachel, Conner",Alki Beach 1 Reserve,39,"Boulders,cobble rock, slope=15 degrees, 40% rock cover, mud",nearest rock along path,1,58,35,O,LG,F,N,17
Olivia Janson,5/8/2015,"Sakara, Rachel, Conner",Alki Beach 1 Reserve,39,"Boulders,cobble rock, slope=15 degrees, 40% rock cover, mud",nearest rock along path,1,58,35,O,BG,F,N,17
Olivia Janson,5/8/2015,"Sakara, Rachel, Conner",Alki Beach 1 Reserve,39,"Boulders,cobble rock, slope=15 degrees, 40% rock cover, mud",nearest rock along path,1,58,35,O,DG,M,N,17
Olivia Janson,5/8/2015,"Sakara, Rachel, Conner",Alki Beach 1 Reserve,39,"Boulders,cobble rock, slope=15 degrees, 40% rock cover, mud",nearest rock along path,1,58,35,O,LG,F,N,14
Olivia Janson,5/8/2015,"Sakara, Rachel, Conner",Alki Beach 1 Reserve,39,"Boulders,cobble rock, slope=15 degrees, 40% rock cover, mud",nearest rock along path,1,58,35,O,LG,M,N,14
Olivia Janson,5/8/2015,"Sakara, Rachel, Conner",Alki Beach 1 Reserve,39,"Boulders,cobble rock, slope=15 degrees, 40% rock cover, mud",nearest rock along path,1,58,35,O,DG,F,N,16
Olivia Janson,5/8/2015,"Sakara, Rachel, Conner",Alki Beach 1 Reserve,39,"Boulders,cobble rock, slope=15 degrees, 40% rock cover, mud",nearest rock along path,1,58,35,O,DG,M,N,14
Olivia Janson,5/8/2015,"Sakara, Rachel, Conner",Alki Beach 1 Reserve,39,"Boulders,cobble rock, slope=15 degrees, 40% rock cover, mud",nearest rock along path,1,58,35,O,DG,M,N,20
Olivia Janson,5/8/2015,"Sakara, Rachel, Conner",Alki Beach 1 Reserve,39,"Boulders,cobble rock, slope=15 degrees, 40% rock cover, mud",nearest rock along path,1,58,35,O,DG,M,N,10
Olivia Janson,5/8/2015,"Sakara, Rachel, Conner",Alki Beach 1 Reserve,39,"Boulders,cobble rock, slope=15 degrees, 40% rock cover, mud",nearest rock along path,1,58,35,O,BG,M,N,19
Olivia Janson,5/8/2015,"Sakara, Rachel, Conner",Alki Beach 1 Reserve,39,"Boulders,cobble rock, slope=15 degrees, 40% rock cover, mud",nearest rock along path,1,58,35,O,DG,M,N,15
Olivia Janson,5/8/2015,"Sakara, Rachel, Conner",Alki Beach 1 Reserve,39,"Boulders,cobble rock, slope=15 degrees, 40% rock cover, mud",nearest rock along path,1,58,35,O,LG,M,N,13
Olivia Janson,5/8/2015,"Sakara, Rachel, Conner",Alki Beach 1 Reserve,39,"Boulders,cobble rock, slope=15 degrees, 40% rock cover, mud",nearest rock along path,1,58,35,O,LG,M,N,16
Olivia Janson,5/8/2015,"Sakara, Rachel, Conner",Alki Beach 1 Reserve,39,"Boulders,cobble rock, slope=15 degrees, 40% rock cover, mud",nearest rock along path,1,58,35,O,GB,M,N,17
Olivia Janson,5/8/2015,"Sakara, Rachel, Conner",Alki Beach 1 Reserve,39,"Boulders,cobble rock, slope=15 degrees, 40% rock cover, mud",nearest rock along path,1,58,35,O,DG,F,N,10
Olivia Janson,5/8/2015,"Sakara, Rachel, Conner",Alki Beach 1 Reserve,39,"Boulders,cobble rock, slope=15 degrees, 40% rock cover, mud",nearest rock along path,1,58,35,O,BG,M,N,12
Olivia Janson,5/8/2015,"Sakara, Rachel, Conner",Alki Beach 1 Reserve,39,"Boulders,cobble rock, slope=15 degrees, 40% rock cover, mud",nearest rock along path,1,58,35,O,DG,M,N,16
Olivia Janson,5/8/2015,"Sakara, Rachel, Conner",Alki Beach 1 Reserve,39,"Boulders,cobble rock, slope=15 degrees, 40% rock cover, mud",nearest rock along path,1,58,35,O,BG,M,N,16
Olivia Janson,5/8/2015,"Sakara, Rachel, Conner",Alki Beach 1 Reserve,39,"Boulders,cobble rock, slope=15 degrees, 40% rock cover, mud",nearest rock along path,1,58,35,O,BG,F,N,8
Olivia Janson,5/8/2015,"Sakara, Rachel, Conner",Alki Beach 1 Reserve,39,"Boulders,cobble rock, slope=15 degrees, 40% rock cover, mud",nearest rock along path,2,49,35,NA,NA,NA,NA,NA
Olivia Janson,5/8/2015,"Sakara, Rachel, Conner",Alki Beach 1 Reserve,39,"Boulders,cobble rock, slope=15 degrees, 40% rock cover, mud",nearest rock along path,3,38,22,O,GB,M,N,15
Olivia Janson,5/8/2015,"Sakara, Rachel, Conner",Alki Beach 1 Reserve,39,"Boulders,cobble rock, slope=15 degrees, 40% rock cover, mud",nearest rock along path,3,38,22,O,DG,F,N,15
Olivia Janson,5/8/2015,"Sakara, Rachel, Conner",Alki Beach 1 Reserve,39,"Boulders,cobble rock, slope=15 degrees, 40% rock cover, mud",nearest rock along path,3,38,22,O,LG,M,N,21
Olivia Janson,5/8/2015,"Sakara, Rachel, Conner",Alki Beach 1 Reserve,39,"Boulders,cobble rock, slope=15 degrees, 40% rock cover, mud",nearest rock along path,3,38,22,O,BG,M,N,20
Olivia Janson,5/8/2015,"Sakara, Rachel, Conner",Alki Beach 1 Reserve,39,"Boulders,cobble rock, slope=15 degrees, 40% rock cover, mud",nearest rock along path,4,58,40,red shore,R,F,N,124
Olivia Janson,5/8/2015,"Sakara, Rachel, Conner",Alki Beach 1 Reserve,39,"Boulders,cobble rock, slope=15 degrees, 40% rock cover, mud",nearest rock along path,5,36,25,NA,NA,NA,NA,NA
Olivia Janson,5/8/2015,"Sakara, Rachel, Conner",Alki Beach 1 Reserve,39,"Boulders,cobble rock, slope=15 degrees, 40% rock cover, mud",nearest rock along path,6,41,46,O,DG,M,N,15
Olivia Janson,5/8/2015,"Sakara, Rachel, Conner",Alki Beach 1 Reserve,39,"Boulders,cobble rock, slope=15 degrees, 40% rock cover, mud",nearest rock along path,6,41,46,O,DG,F,Y,9
Olivia Janson,5/8/2015,"Sakara, Rachel, Conner",Alki Beach 1 Reserve,39,"Boulders,cobble rock, slope=15 degrees, 40% rock cover, mud",nearest rock along path,6,41,46,N,P,F,N,15
Olivia Janson,5/8/2015,"Sakara, Rachel, Conner",Alki Beach 1 Reserve,39,"Boulders,cobble rock, slope=15 degrees, 40% rock cover, mud",nearest rock along path,6,41,46,O,LG,F,Y,13
Olivia Janson,5/8/2015,"Sakara, Rachel, Conner",Alki Beach 1 Reserve,39,"Boulders,cobble rock, slope=15 degrees, 40% rock cover, mud",nearest rock along path,6,41,46,O,BG,M,N,21
Olivia Janson,5/8/2015,"Sakara, Rachel, Conner",Alki Beach 1 Reserve,39,"Boulders,cobble rock, slope=15 degrees, 40% rock cover, mud",nearest rock along path,6,41,46,O,BG,M,N,11
Olivia Janson,5/8/2015,"Sakara, Rachel, Conner",Alki Beach 1 Reserve,39,"Boulders,cobble rock, slope=15 degrees, 40% rock cover, mud",nearest rock along path,6,41,46,O,LG,F,N,14
Olivia Janson,5/8/2015,"Sakara, Rachel, Conner",Alki Beach 1 Reserve,39,"Boulders,cobble rock, slope=15 degrees, 40% rock cover, mud",nearest rock along path,6,41,46,O,BG,F,N,15
Olivia Janson,5/8/2015,"Sakara, Rachel, Conner",Alki Beach 1 Reserve,39,"Boulders,cobble rock, slope=15 degrees, 40% rock cover, mud",nearest rock along path,6,41,46,O,DG,F,Y,11
Olivia Janson,5/8/2015,"Sakara, Rachel, Conner",Alki Beach 1 Reserve,39,"Boulders,cobble rock, slope=15 degrees, 40% rock cover, mud",nearest rock along path,6,41,46,O,DG,M,N,17
Olivia Janson,5/8/2015,"Sakara, Rachel, Conner",Alki Beach 1 Reserve,39,"Boulders,cobble rock, slope=15 degrees, 40% rock cover, mud",nearest rock along path,6,41,46,O,W,F,N,14
Olivia Janson,5/8/2015,"Sakara, Rachel, Conner",Alki Beach 1 Reserve,39,"Boulders,cobble rock, slope=15 degrees, 40% rock cover, mud",nearest rock along path,6,41,46,O,DG,M,N,16
Olivia Janson,5/8/2015,"Sakara, Rachel, Conner",Alki Beach 1 Reserve,39,"Boulders,cobble rock, slope=15 degrees, 40% rock cover, mud",nearest rock along path,6,41,46,O,LG,F,N,17
Olivia Janson,5/8/2015,"Sakara, Rachel, Conner",Alki Beach 1 Reserve,39,"Boulders,cobble rock, slope=15 degrees, 40% rock cover, mud",nearest rock along path,6,41,46,O,LG,M,N,17
Olivia Janson,5/8/2015,"Sakara, Rachel, Conner",Alki Beach 1 Reserve,39,"Boulders,cobble rock, slope=15 degrees, 40% rock cover, mud",nearest rock along path,6,41,46,O,DG,M,N,15
Olivia Janson,5/8/2015,"Sakara, Rachel, Conner",Alki Beach 1 Reserve,39,"Boulders,cobble rock, slope=15 degrees, 40% rock cover, mud",nearest rock along path,6,41,46,O,DG,M,N,11
Olivia Janson,5/8/2015,"Sakara, Rachel, Conner",Alki Beach 1 Reserve,39,"Boulders,cobble rock, slope=15 degrees, 40% rock cover, mud",nearest rock along path,6,41,46,O,DG,M,N,15
Olivia Janson,5/8/2015,"Sakara, Rachel, Conner",Alki Beach 1 Reserve,39,"Boulders,cobble rock, slope=15 degrees, 40% rock cover, mud",nearest rock along path,6,41,46,O,W,F,N,11
Olivia Janson,5/8/2015,"Sakara, Rachel, Conner",Alki Beach 1 Reserve,39,"Boulders,cobble rock, slope=15 degrees, 40% rock cover, mud",nearest rock along path,6,41,46,O,GB,M,N,12
Olivia Janson,5/8/2015,"Sakara, Rachel, Conner",Alki Beach 1 Reserve,39,"Boulders,cobble rock, slope=15 degrees, 40% rock cover, mud",nearest rock along path,6,41,46,O,W,F,N,11
Olivia Janson,5/8/2015,"Sakara, Rachel, Conner",Alki Beach 1 Reserve,39,"Boulders,cobble rock, slope=15 degrees, 40% rock cover, mud",nearest rock along path,6,41,46,O,DG,M,N,22
Olivia Janson,5/8/2015,"Sakara, Rachel, Conner",Alki Beach 1 Reserve,39,"Boulders,cobble rock, slope=15 degrees, 40% rock cover, mud",nearest rock along path,6,41,46,O,GB,F,N,16
Olivia Janson,5/8/2015,"Sakara, Rachel, Conner",Alki Beach 1 Reserve,39,"Boulders,cobble rock, slope=15 degrees, 40% rock cover, mud",nearest rock along path,6,41,46,O,GB,M,N,15
Olivia Janson,5/8/2015,"Sakara, Rachel, Conner",Alki Beach 1 Reserve,39,"Boulders,cobble rock, slope=15 degrees, 40% rock cover, mud",nearest rock along path,6,41,46,O,GB,M,N,15
Olivia Janson,5/8/2015,"Sakara, Rachel, Conner",Alki Beach 1 Reserve,39,"Boulders,cobble rock, slope=15 degrees, 40% rock cover, mud",nearest rock along path,6,41,46,O,DG,F,N,14
Olivia Janson,5/8/2015,"Sakara, Rachel, Conner",Alki Beach 1 Reserve,39,"Boulders,cobble rock, slope=15 degrees, 40% rock cover, mud",nearest rock along path,6,41,46,O,GB,F,N,11
Olivia Janson,5/8/2015,"Sakara, Rachel, Conner",Alki Beach 1 Reserve,39,"Boulders,cobble rock, slope=15 degrees, 40% rock cover, mud",nearest rock along path,6,41,46,O,DG,F,N,16
Olivia Janson,5/8/2015,"Sakara, Rachel, Conner",Alki Beach 1 Reserve,39,"Boulders,cobble rock, slope=15 degrees, 40% rock cover, mud",nearest rock along path,6,41,46,O,GB,F,Y,13
Olivia Janson,5/8/2015,"Sakara, Rachel, Conner",Alki Beach 1 Reserve,39,"Boulders,cobble rock, slope=15 degrees, 40% rock cover, mud",nearest rock along path,6,41,46,O,DG,F,N,12
Olivia Janson,5/8/2015,"Sakara, Rachel, Conner",Alki Beach 1 Reserve,39,"Boulders,cobble rock, slope=15 degrees, 40% rock cover, mud",nearest rock along path,6,41,46,O,DG,M,N,16
Olivia Janson,5/8/2015,"Sakara, Rachel, Conner",Alki Beach 1 Reserve,39,"Boulders,cobble rock, slope=15 degrees, 40% rock cover, mud",nearest rock along path,6,41,46,O,DG,F,N,15
Olivia Janson,5/8/2015,"Sakara, Rachel, Conner",Alki Beach 1 Reserve,39,"Boulders,cobble rock, slope=15 degrees, 40% rock cover, mud",nearest rock along path,7,21,20,O,LG,M,N,18
Olivia Janson,5/8/2015,"Sakara, Rachel, Conner",Alki Beach 1 Reserve,39,"Boulders,cobble rock, slope=15 degrees, 40% rock cover, mud",nearest rock along path,8,30,25,O,W,F,N,12
Olivia Janson,5/8/2015,"Sakara, Rachel, Conner",Alki Beach 1 Reserve,39,"Boulders,cobble rock, slope=15 degrees, 40% rock cover, mud",nearest rock along path,8,30,25,O,GB,M,N,15
Olivia Janson,5/8/2015,"Sakara, Rachel, Conner",Alki Beach 1 Reserve,39,"Boulders,cobble rock, slope=15 degrees, 40% rock cover, mud",nearest rock along path,8,30,25,O,LG,F,N,13
Olivia Janson,5/8/2015,"Sakara, Rachel, Conner",Alki Beach 1 Reserve,39,"Boulders,cobble rock, slope=15 degrees, 40% rock cover, mud",nearest rock along path,8,30,25,O,GB,F,N,13
Olivia Janson,5/8/2015,"Sakara, Rachel, Conner",Alki Beach 1 Reserve,39,"Boulders,cobble rock, slope=15 degrees, 40% rock cover, mud",nearest rock along path,8,30,25,O,DG,F,N,11
Olivia Janson,5/8/2015,"Sakara, Rachel, Conner",Alki Beach 1 Reserve,39,"Boulders,cobble rock, slope=15 degrees, 40% rock cover, mud",nearest rock along path,8,30,25,O,GB,M,N,19
Olivia Janson,5/8/2015,"Sakara, Rachel, Conner",Alki Beach 1 Reserve,39,"Boulders,cobble rock, slope=15 degrees, 40% rock cover, mud",nearest rock along path,8,30,25,O,DG,F,N,13
Olivia Janson,5/8/2015,"Sakara, Rachel, Conner",Alki Beach 1 Reserve,39,"Boulders,cobble rock, slope=15 degrees, 40% rock cover, mud",nearest rock along path,8,30,25,O,DG,F,N,11
Olivia Janson,5/8/2015,"Sakara, Rachel, Conner",Alki Beach 1 Reserve,39,"Boulders,cobble rock, slope=15 degrees, 40% rock cover, mud",nearest rock along path,8,30,25,O,GB,F,N,14
Olivia Janson,5/8/2015,"Sakara, Rachel, Conner",Alki Beach 1 Reserve,39,"Boulders,cobble rock, slope=15 degrees, 40% rock cover, mud",nearest rock along path,8,30,25,O,GB,M,N,18
Olivia Janson,5/8/2015,"Sakara, Rachel, Conner",Alki Beach 1 Reserve,39,"Boulders,cobble rock, slope=15 degrees, 40% rock cover, mud",nearest rock along path,8,30,25,O,DG,M,N,15
Olivia Janson,5/8/2015,"Sakara, Rachel, Conner",Alki Beach 1 Reserve,39,"Boulders,cobble rock, slope=15 degrees, 40% rock cover, mud",nearest rock along path,8,30,25,O,DG,M,N,17
Olivia Janson,5/8/2015,"Sakara, Rachel, Conner",Alki Beach 1 Reserve,39,"Boulders,cobble rock, slope=15 degrees, 40% rock cover, mud",nearest rock along path,9,77,40,O,R,M,N,16
Olivia Janson,5/8/2015,"Sakara, Rachel, Conner",Alki Beach 1 Reserve,39,"Boulders,cobble rock, slope=15 degrees, 40% rock cover, mud",nearest rock along path,9,77,40,O,GB,F,N,9
Olivia Janson,5/8/2015,"Sakara, Rachel, Conner",Alki Beach 1 Reserve,39,"Boulders,cobble rock, slope=15 degrees, 40% rock cover, mud",nearest rock along path,9,77,40,O,DG,M,N,16
Olivia Janson,5/8/2015,"Sakara, Rachel, Conner",Alki Beach 1 Reserve,39,"Boulders,cobble rock, slope=15 degrees, 40% rock cover, mud",nearest rock along path,9,77,40,O,LG,M,N,27
Olivia Janson,5/8/2015,"Sakara, Rachel, Conner",Alki Beach 1 Reserve,39,"Boulders,cobble rock, slope=15 degrees, 40% rock cover, mud",nearest rock along path,10,33,20,NA,NA,NA,NA,NA
Olivia Janson,5/8/2015,"Sakara, Rachel, Conner",Alki Beach 1 Reserve,39,"Boulders,cobble rock, slope=15 degrees, 40% rock cover, mud",nearest rock along path,11,30,27,O,LG,M,N,17
Olivia Janson,5/8/2015,"Sakara, Rachel, Conner",Alki Beach 1 Reserve,39,"Boulders,cobble rock, slope=15 degrees, 40% rock cover, mud",nearest rock along path,12,62,30,O,DG,F,Y,14
Olivia Janson,5/8/2015,"Sakara, Rachel, Conner",Alki Beach 1 Reserve,39,"Boulders,cobble rock, slope=15 degrees, 40% rock cover, mud",nearest rock along path,12,62,30,red shore,R,M,N,52
Olivia Janson,5/8/2015,"Sakara, Rachel, Conner",Alki Beach 1 Reserve,39,"Boulders,cobble rock, slope=15 degrees, 40% rock cover, mud",nearest rock along path,13,38,32,red shore,R,M,N,46
Olivia Janson,5/8/2015,"Sakara, Rachel, Conner",Alki Beach 1 Reserve,39,"Boulders,cobble rock, slope=15 degrees, 40% rock cover, mud",nearest rock along path,13,38,32,O,GB,F,Y,15
Olivia Janson,5/8/2015,"Sakara, Rachel, Conner",Alki Beach 1 Reserve,39,"Boulders,cobble rock, slope=15 degrees, 40% rock cover, mud",nearest rock along path,14,33,23,O,DG,M,N,15
Olivia Janson,5/8/2015,"Sakara, Rachel, Conner",Alki Beach 1 Reserve,39,"Boulders,cobble rock, slope=15 degrees, 40% rock cover, mud",nearest rock along path,15,68,38,O,GB,F,Y,8
Olivia Janson,5/8/2015,"Sakara, Rachel, Conner",Alki Beach 1 Reserve,39,"Boulders,cobble rock, slope=15 degrees, 40% rock cover, mud",nearest rock along path,15,68,38,O,LG,F,N,17
Olivia Janson,5/8/2015,"Sakara, Rachel, Conner",Alki Beach 1 Reserve,39,"Boulders,cobble rock, slope=15 degrees, 40% rock cover, mud",nearest rock along path,15,68,38,O,GB,F,N,12
Olivia Janson,5/8/2015,"Sakara, Rachel, Conner",Alki Beach 1 Reserve,39,"Boulders,cobble rock, slope=15 degrees, 40% rock cover, mud",nearest rock along path,15,68,38,O,GB,F,N,15
Olivia Janson,5/8/2015,"Sakara, Rachel, Conner",Alki Beach 1 Reserve,39,"Boulders,cobble rock, slope=15 degrees, 40% rock cover, mud",nearest rock along path,16,43,24,O,GB,M,N,13
Olivia Janson,5/8/2015,"Sakara, Rachel, Conner",Alki Beach 1 Reserve,39,"Boulders,cobble rock, slope=15 degrees, 40% rock cover, mud",nearest rock along path,16,43,24,O,GB,M,N,17
Olivia Janson,5/8/2015,"Sakara, Rachel, Conner",Alki Beach 1 Reserve,39,"Boulders,cobble rock, slope=15 degrees, 40% rock cover, mud",nearest rock along path,16,43,24,O,GB,F,N,9
Olivia Janson,5/8/2015,"Sakara, Rachel, Conner",Alki Beach 1 Reserve,39,"Boulders,cobble rock, slope=15 degrees, 40% rock cover, mud",nearest rock along path,16,43,24,O,GB,F,N,17
Olivia Janson,5/8/2015,"Sakara, Rachel, Conner",Alki Beach 1 Reserve,39,"Boulders,cobble rock, slope=15 degrees, 40% rock cover, mud",nearest rock along path,17,50,42,O,GB,F,Y,10
Olivia Janson,5/8/2015,"Sakara, Rachel, Conner",Alki Beach 1 Reserve,39,"Boulders,cobble rock, slope=15 degrees, 40% rock cover, mud",nearest rock along path,17,50,42,O,R,F,N,16
Olivia Janson,5/8/2015,"Sakara, Rachel, Conner",Alki Beach 1 Reserve,39,"Boulders,cobble rock, slope=15 degrees, 40% rock cover, mud",nearest rock along path,17,50,42,O,DG,F,N,19
Olivia Janson,5/8/2015,"Sakara, Rachel, Conner",Alki Beach 1 Reserve,39,"Boulders,cobble rock, slope=15 degrees, 40% rock cover, mud",nearest rock along path,17,50,42,O,LG,F,Y,12
Olivia Janson,5/8/2015,"Sakara, Rachel, Conner",Alki Beach 1 Reserve,39,"Boulders,cobble rock, slope=15 degrees, 40% rock cover, mud",nearest rock along path,17,50,42,O,DG,M,N,18
Olivia Janson,5/8/2015,"Sakara, Rachel, Conner",Alki Beach 1 Reserve,39,"Boulders,cobble rock, slope=15 degrees, 40% rock cover, mud",nearest rock along path,17,50,42,O,GB,M,N,16
Olivia Janson,5/8/2015,"Sakara, Rachel, Conner",Alki Beach 1 Reserve,39,"Boulders,cobble rock, slope=15 degrees, 40% rock cover, mud",nearest rock along path,17,50,42,O,GB,M,N,16
Olivia Janson,5/8/2015,"Sakara, Rachel, Conner",Alki Beach 1 Reserve,39,"Boulders,cobble rock, slope=15 degrees, 40% rock cover, mud",nearest rock along path,17,50,42,O,M,F,N,11
Olivia Janson,5/8/2015,"Sakara, Rachel, Conner",Alki Beach 1 Reserve,39,"Boulders,cobble rock, slope=15 degrees, 40% rock cover, mud",nearest rock along path,17,50,42,O,M,F,N,13
Olivia Janson,5/8/2015,"Sakara, Rachel, Conner",Alki Beach 1 Reserve,39,"Boulders,cobble rock, slope=15 degrees, 40% rock cover, mud",nearest rock along path,17,50,42,O,GB,F,N,14
Olivia Janson,5/8/2015,"Sakara, Rachel, Conner",Alki Beach 1 Reserve,39,"Boulders,cobble rock, slope=15 degrees, 40% rock cover, mud",nearest rock along path,17,50,42,O,GB,M,N,10
Olivia Janson,5/8/2015,"Sakara, Rachel, Conner",Alki Beach 1 Reserve,39,"Boulders,cobble rock, slope=15 degrees, 40% rock cover, mud",nearest rock along path,18,55,33,O,GB,M,N,18
Olivia Janson,5/8/2015,"Sakara, Rachel, Conner",Alki Beach 1 Reserve,39,"Boulders,cobble rock, slope=15 degrees, 40% rock cover, mud",nearest rock along path,18,55,33,O,DG,F,N,13
Olivia Janson,5/8/2015,"Sakara, Rachel, Conner",Alki Beach 1 Reserve,39,"Boulders,cobble rock, slope=15 degrees, 40% rock cover, mud",nearest rock along path,18,55,33,O,DG,M,N,14
Olivia Janson,5/8/2015,"Sakara, Rachel, Conner",Alki Beach 1 Reserve,39,"Boulders,cobble rock, slope=15 degrees, 40% rock cover, mud",nearest rock along path,18,55,33,O,GB,F,N,21
Olivia Janson,5/8/2015,"Sakara, Rachel, Conner",Alki Beach 1 Reserve,39,"Boulders,cobble rock, slope=15 degrees, 40% rock cover, mud",nearest rock along path,18,55,33,O,P,F,N,11
Olivia Janson,5/8/2015,"Sakara, Rachel, Conner",Alki Beach 1 Reserve,39,"Boulders,cobble rock, slope=15 degrees, 40% rock cover, mud",nearest rock along path,18,55,33,O,W,F,N,13
Olivia Janson,5/8/2015,"Sakara, Rachel, Conner",Alki Beach 1 Reserve,39,"Boulders,cobble rock, slope=15 degrees, 40% rock cover, mud",nearest rock along path,18,55,33,O,GB,M,N,19
Olivia Janson,5/8/2015,"Sakara, Rachel, Conner",Alki Beach 1 Reserve,39,"Boulders,cobble rock, slope=15 degrees, 40% rock cover, mud",nearest rock along path,18,55,33,O,DG,F,N,10
Olivia Janson,5/8/2015,"Sakara, Rachel, Conner",Alki Beach 1 Reserve,39,"Boulders,cobble rock, slope=15 degrees, 40% rock cover, mud",nearest rock along path,18,55,33,O,GB,F,N,11
Olivia Janson,5/8/2015,"Sakara, Rachel, Conner",Alki Beach 1 Reserve,39,"Boulders,cobble rock, slope=15 degrees, 40% rock cover, mud",nearest rock along path,18,55,33,O,LG,M,N,15
Olivia Janson,5/8/2015,"Sakara, Rachel, Conner",Alki Beach 1 Reserve,39,"Boulders,cobble rock, slope=15 degrees, 40% rock cover, mud",nearest rock along path,18,55,33,O,LG,M,N,17
Olivia Janson,5/8/2015,"Sakara, Rachel, Conner",Alki Beach 1 Reserve,39,"Boulders,cobble rock, slope=15 degrees, 40% rock cover, mud",nearest rock along path,18,55,33,O,LG,M,N,16
Olivia Janson,5/8/2015,"Sakara, Rachel, Conner",Alki Beach 1 Reserve,39,"Boulders,cobble rock, slope=15 degrees, 40% rock cover, mud",nearest rock along path,18,55,33,O,LG,F,N,18
Olivia Janson,5/8/2015,"Sakara, Rachel, Conner",Alki Beach 1 Reserve,39,"Boulders,cobble rock, slope=15 degrees, 40% rock cover, mud",nearest rock along path,18,55,33,O,GB,F,N,14
Olivia Janson,5/8/2015,"Sakara, Rachel, Conner",Alki Beach 1 Reserve,39,"Boulders,cobble rock, slope=15 degrees, 40% rock cover, mud",nearest rock along path,18,55,33,O,LG,M,N,16
Olivia Janson,5/8/2015,"Sakara, Rachel, Conner",Alki Beach 1 Reserve,39,"Boulders,cobble rock, slope=15 degrees, 40% rock cover, mud",nearest rock along path,18,55,33,O,LG,M,N,14
Olivia Janson,5/8/2015,"Sakara, Rachel, Conner",Alki Beach 1 Reserve,39,"Boulders,cobble rock, slope=15 degrees, 40% rock cover, mud",nearest rock along path,18,55,33,O,DG,M,N,14
Olivia Janson,5/8/2015,"Sakara, Rachel, Conner",Alki Beach 1 Reserve,39,"Boulders,cobble rock, slope=15 degrees, 40% rock cover, mud",nearest rock along path,18,55,33,O,W,F,N,10
Olivia Janson,5/8/2015,"Sakara, Rachel, Conner",Alki Beach 1 Reserve,39,"Boulders,cobble rock, slope=15 degrees, 40% rock cover, mud",nearest rock along path,18,55,33,O,DG,M,N,16
Olivia Janson,5/8/2015,"Sakara, Rachel, Conner",Alki Beach 1 Reserve,39,"Boulders,cobble rock, slope=15 degrees, 40% rock cover, mud",nearest rock along path,18,55,33,O,W,F,N,12
Olivia Janson,5/8/2015,"Sakara, Rachel, Conner",Alki Beach 1 Reserve,39,"Boulders,cobble rock, slope=15 degrees, 40% rock cover, mud",nearest rock along path,18,55,33,O,GB,M,N,12
Olivia Janson,5/8/2015,"Sakara, Rachel, Conner",Alki Beach 1 Reserve,39,"Boulders,cobble rock, slope=15 degrees, 40% rock cover, mud",nearest rock along path,18,55,33,O,DG,M,N,16
Olivia Janson,5/8/2015,"Sakara, Rachel, Conner",Alki Beach 1 Reserve,39,"Boulders,cobble rock, slope=15 degrees, 40% rock cover, mud",nearest rock along path,18,55,33,O,DG,M,N,16
Olivia Janson,5/8/2015,"Sakara, Rachel, Conner",Alki Beach 1 Reserve,39,"Boulders,cobble rock, slope=15 degrees, 40% rock cover, mud",nearest rock along path,18,55,33,O,GB,M,N,13
Olivia Janson,5/8/2015,"Sakara, Rachel, Conner",Alki Beach 1 Reserve,39,"Boulders,cobble rock, slope=15 degrees, 40% rock cover, mud",nearest rock along path,18,55,33,O,LG,F,N,15
Olivia Janson,5/8/2015,"Sakara, Rachel, Conner",Alki Beach 1 Reserve,39,"Boulders,cobble rock, slope=15 degrees, 40% rock cover, mud",nearest rock along path,18,55,33,O,GB,F,N,13
Olivia Janson,5/8/2015,"Sakara, Rachel, Conner",Alki Beach 1 Reserve,39,"Boulders,cobble rock, slope=15 degrees, 40% rock cover, mud",nearest rock along path,18,55,33,O,GB,F,N,16
Olivia Janson,5/8/2015,"Sakara, Rachel, Conner",Alki Beach 1 Reserve,39,"Boulders,cobble rock, slope=15 degrees, 40% rock cover, mud",nearest rock along path,18,55,33,O,GB,F,N,14
Olivia Janson,5/8/2015,"Sakara, Rachel, Conner",Alki Beach 1 Reserve,39,"Boulders,cobble rock, slope=15 degrees, 40% rock cover, mud",nearest rock along path,18,55,33,O,GB,F,N,13
Olivia Janson,5/8/2015,"Sakara, Rachel, Conner",Alki Beach 1 Reserve,39,"Boulders,cobble rock, slope=15 degrees, 40% rock cover, mud",nearest rock along path,18,55,33,O,DG,F,N,12
Olivia Janson,5/8/2015,"Sakara, Rachel, Conner",Alki Beach 1 Reserve,39,"Boulders,cobble rock, slope=15 degrees, 40% rock cover, mud",nearest rock along path,19,25,20,O,GB,F,N,12
Olivia Janson,5/8/2015,"Sakara, Rachel, Conner",Alki Beach 1 Reserve,39,"Boulders,cobble rock, slope=15 degrees, 40% rock cover, mud",nearest rock along path,19,25,20,O,GB,F,N,12
Olivia Janson,5/8/2015,"Sakara, Rachel, Conner",Alki Beach 1 Reserve,39,"Boulders,cobble rock, slope=15 degrees, 40% rock cover, mud",nearest rock along path,19,25,20,O,GB,M,N,13
Olivia Janson,5/8/2015,"Sakara, Rachel, Conner",Alki Beach 1 Reserve,39,"Boulders,cobble rock, slope=15 degrees, 40% rock cover, mud",nearest rock along path,19,25,20,O,GB,F,N,12
Olivia Janson,5/8/2015,"Sakara, Rachel, Conner",Alki Beach 1 Reserve,39,"Boulders,cobble rock, slope=15 degrees, 40% rock cover, mud",nearest rock along path,20,36,30,O,GB,F,N,17
Olivia Janson,5/8/2015,"Sakara, Rachel, Conner",Alki Beach 1 Reserve,39,"Boulders,cobble rock, slope=15 degrees, 40% rock cover, mud",nearest rock along path,20,36,30,O,LG,F,N,15
Olivia Janson,5/8/2015,"Sakara, Rachel, Conner",Alki Beach 1 Reserve,39,"Boulders,cobble rock, slope=15 degrees, 40% rock cover, mud",nearest rock along path,20,36,30,O,LG,F,N,15
Olivia Janson,5/8/2015,"Sakara, Rachel, Conner",Alki Beach 1 Reserve,39,"Boulders,cobble rock, slope=15 degrees, 40% rock cover, mud",nearest rock along path,20,36,30,O,LG,M,N,14
Olivia Janson,5/8/2015,"Sakara, Rachel, Conner",Alki Beach 1 Reserve,39,"Boulders,cobble rock, slope=15 degrees, 40% rock cover, mud",nearest rock along path,20,36,30,O,LG,M,N,14
Olivia Janson,5/8/2015,"Sakara, Rachel, Conner",Alki Beach 1 Reserve,39,"Boulders,cobble rock, slope=15 degrees, 40% rock cover, mud",nearest rock along path,20,36,30,O,P,F,N,11
Olivia Janson,5/8/2015,"Sakara, Rachel, Conner",Alki Beach 1 Reserve,39,"Boulders,cobble rock, slope=15 degrees, 40% rock cover, mud",nearest rock along path,20,36,30,O,GB,M,N,12
Olivia Janson,5/8/2015,"Sakara, Rachel, Conner",Alki Beach 1 Reserve,39,"Boulders,cobble rock, slope=15 degrees, 40% rock cover, mud",nearest rock along path,20,36,30,O,DG,F,N,10
Olivia Janson,5/8/2015,"Sakara, Rachel, Conner",Alki Beach 1 Reserve,39,"Boulders,cobble rock, slope=15 degrees, 40% rock cover, mud",nearest rock along path,21,38,9,O,DG,M,N,20
Olivia Janson,5/8/2015,"Sakara, Rachel, Conner",Alki Beach 1 Reserve,39,"Boulders,cobble rock, slope=15 degrees, 40% rock cover, mud",nearest rock along path,22,53,29,O,GB,M,N,13
Olivia Janson,5/8/2015,"Sakara, Rachel, Conner",Alki Beach 1 Reserve,39,"Boulders,cobble rock, slope=15 degrees, 40% rock cover, mud",nearest rock along path,22,53,29,O,DG,F,N,14
Olivia Janson,5/8/2015,"Sakara, Rachel, Conner",Alki Beach 1 Reserve,39,"Boulders,cobble rock, slope=15 degrees, 40% rock cover, mud",nearest rock along path,22,53,29,O,DG,M,N,15
Olivia Janson,5/8/2015,"Sakara, Rachel, Conner",Alki Beach 1 Reserve,39,"Boulders,cobble rock, slope=15 degrees, 40% rock cover, mud",nearest rock along path,22,53,29,O,GB,M,N,14
Olivia Janson,5/8/2015,"Sakara, Rachel, Conner",Alki Beach 1 Reserve,39,"Boulders,cobble rock, slope=15 degrees, 40% rock cover, mud",nearest rock along path,22,53,29,O,P,F,N,12
Olivia Janson,5/8/2015,"Sakara, Rachel, Conner",Alki Beach 1 Reserve,39,"Boulders,cobble rock, slope=15 degrees, 40% rock cover, mud",nearest rock along path,22,53,29,O,W,F,N,13
Olivia Janson,5/8/2015,"Sakara, Rachel, Conner",Alki Beach 1 Reserve,39,"Boulders,cobble rock, slope=15 degrees, 40% rock cover, mud",nearest rock along path,22,53,29,O,DG,M,N,16
Olivia Janson,5/8/2015,"Sakara, Rachel, Conner",Alki Beach 1 Reserve,39,"Boulders,cobble rock, slope=15 degrees, 40% rock cover, mud",nearest rock along path,22,53,29,O,GB,F,N,12
Olivia Janson,5/8/2015,"Sakara, Rachel, Conner",Alki Beach 1 Reserve,39,"Boulders,cobble rock, slope=15 degrees, 40% rock cover, mud",nearest rock along path,22,53,29,O,GB,F,N,12
Olivia Janson,5/8/2015,"Sakara, Rachel, Conner",Alki Beach 1 Reserve,39,"Boulders,cobble rock, slope=15 degrees, 40% rock cover, mud",nearest rock along path,22,53,29,O,DG,F,N,13
Olivia Janson,5/8/2015,"Sakara, Rachel, Conner",Alki Beach 1 Reserve,39,"Boulders,cobble rock, slope=15 degrees, 40% rock cover, mud",nearest rock along path,22,53,29,O,LG,F,N,13
Olivia Janson,5/8/2015,"Sakara, Rachel, Conner",Alki Beach 1 Reserve,39,"Boulders,cobble rock, slope=15 degrees, 40% rock cover, mud",nearest rock along path,22,53,29,O,GB,F,N,12
Olivia Janson,5/8/2015,"Sakara, Rachel, Conner",Alki Beach 1 Reserve,39,"Boulders,cobble rock, slope=15 degrees, 40% rock cover, mud",nearest rock along path,22,53,29,O,GB,F,N,12
Olivia Janson,5/8/2015,"Sakara, Rachel, Conner",Alki Beach 1 Reserve,39,"Boulders,cobble rock, slope=15 degrees, 40% rock cover, mud",nearest rock along path,22,53,29,O,LG,M,N,19
Olivia Janson,5/8/2015,"Sakara, Rachel, Conner",Alki Beach 1 Reserve,39,"Boulders,cobble rock, slope=15 degrees, 40% rock cover, mud",nearest rock along path,22,53,29,O,GB,M,N,12
Olivia Janson,5/8/2015,"Sakara, Rachel, Conner",Alki Beach 1 Reserve,39,"Boulders,cobble rock, slope=15 degrees, 40% rock cover, mud",nearest rock along path,22,53,29,O,GB,M,N,19
Olivia Janson,5/8/2015,"Sakara, Rachel, Conner",Alki Beach 1 Reserve,39,"Boulders,cobble rock, slope=15 degrees, 40% rock cover, mud",nearest rock along path,22,53,29,O,DG,M,N,13
Olivia Janson,5/8/2015,"Sakara, Rachel, Conner",Alki Beach 1 Reserve,39,"Boulders,cobble rock, slope=15 degrees, 40% rock cover, mud",nearest rock along path,22,53,29,O,GB,M,N,9
Olivia Janson,5/8/2015,"Sakara, Rachel, Conner",Alki Beach 1 Reserve,39,"Boulders,cobble rock, slope=15 degrees, 40% rock cover, mud",nearest rock along path,22,53,29,O,DG,F,N,11
Olivia Janson,5/8/2015,"Sakara, Rachel, Conner",Alki Beach 1 Reserve,39,"Boulders,cobble rock, slope=15 degrees, 40% rock cover, mud",nearest rock along path,23,23,16,O,DG,M,N,13
Olivia Janson,5/8/2015,"Sakara, Rachel, Conner",Alki Beach 1 Reserve,39,"Boulders,cobble rock, slope=15 degrees, 40% rock cover, mud",nearest rock along path,23,23,16,O,GB,M,N,16
Olivia Janson,5/8/2015,"Sakara, Rachel, Conner",Alki Beach 1 Reserve,39,"Boulders,cobble rock, slope=15 degrees, 40% rock cover, mud",nearest rock along path,23,23,16,O,W,F,Y,12
Olivia Janson,5/8/2015,"Sakara, Rachel, Conner",Alki Beach 1 Reserve,39,"Boulders,cobble rock, slope=15 degrees, 40% rock cover, mud",nearest rock along path,23,23,16,O,GB,M,N,14
Olivia Janson,5/8/2015,"Sakara, Rachel, Conner",Alki Beach 1 Reserve,39,"Boulders,cobble rock, slope=15 degrees, 40% rock cover, mud",nearest rock along path,23,23,16,O,W,F,N,13
Olivia Janson,5/8/2015,"Sakara, Rachel, Conner",Alki Beach 1 Reserve,39,"Boulders,cobble rock, slope=15 degrees, 40% rock cover, mud",nearest rock along path,23,23,16,O,LG,M,N,21
Olivia Janson,5/8/2015,"Sakara, Rachel, Conner",Alki Beach 1 Reserve,39,"Boulders,cobble rock, slope=15 degrees, 40% rock cover, mud",nearest rock along path,23,23,16,O,LG,M,N,17
Olivia Janson,5/8/2015,"Sakara, Rachel, Conner",Alki Beach 1 Reserve,39,"Boulders,cobble rock, slope=15 degrees, 40% rock cover, mud",nearest rock along path,23,23,16,O,LG,F,N,15
Olivia Janson,5/8/2015,"Sakara, Rachel, Conner",Alki Beach 1 Reserve,39,"Boulders,cobble rock, slope=15 degrees, 40% rock cover, mud",nearest rock along path,23,23,16,O,GB,F,N,10
Olivia Janson,5/8/2015,"Sakara, Rachel, Conner",Alki Beach 1 Reserve,39,"Boulders,cobble rock, slope=15 degrees, 40% rock cover, mud",nearest rock along path,23,23,16,O,DG,F,N,12
Olivia Janson,5/8/2015,"Sakara, Rachel, Conner",Alki Beach 1 Reserve,39,"Boulders,cobble rock, slope=15 degrees, 40% rock cover, mud",nearest rock along path,23,23,16,O,DG,F,N,10
Olivia Janson,5/8/2015,"Sakara, Rachel, Conner",Alki Beach 1 Reserve,39,"Boulders,cobble rock, slope=15 degrees, 40% rock cover, mud",nearest rock along path,23,23,16,O,DG,M,N,12
Olivia Janson,5/8/2015,"Sakara, Rachel, Conner",Alki Beach 1 Reserve,39,"Boulders,cobble rock, slope=15 degrees, 40% rock cover, mud",nearest rock along path,24,21,12,O,GB,F,N,12
Olivia Janson,5/8/2015,"Sakara, Rachel, Conner",Alki Beach 1 Reserve,39,"Boulders,cobble rock, slope=15 degrees, 40% rock cover, mud",nearest rock along path,24,21,12,O,LG,M,N,14
Olivia Janson,5/8/2015,"Sakara, Rachel, Conner",Alki Beach 1 Reserve,39,"Boulders,cobble rock, slope=15 degrees, 40% rock cover, mud",nearest rock along path,24,21,12,O,LG,F,N,11
Olivia Janson,5/8/2015,"Sakara, Rachel, Conner",Alki Beach 1 Reserve,39,"Boulders,cobble rock, slope=15 degrees, 40% rock cover, mud",nearest rock along path,24,21,12,O,GB,F,N,12
Olivia Janson,5/8/2015,"Sakara, Rachel, Conner",Alki Beach 1 Reserve,39,"Boulders,cobble rock, slope=15 degrees, 40% rock cover, mud",nearest rock along path,25,54,38,O,DG,M,N,21
Olivia Janson,5/8/2015,"Sakara, Rachel, Conner",Alki Beach 1 Reserve,39,"Boulders,cobble rock, slope=15 degrees, 40% rock cover, mud",nearest rock along path,25,54,38,red shore,R,F,N,19
Olivia Janson,5/8/2015,"Sakara, Rachel, Conner",Alki Beach 1 Reserve,39,"Boulders,cobble rock, slope=15 degrees, 40% rock cover, mud",nearest rock along path,25,54,38,O,GB,F,N,12
Olivia Janson,5/8/2015,"Sakara, Rachel, Conner",Alki Beach 1 Reserve,39,"Boulders,cobble rock, slope=15 degrees, 40% rock cover, mud",nearest rock along path,25,54,38,O,LG,M,N,15
Olivia Janson,5/8/2015,"Sakara, Rachel, Conner",Alki Beach 1 Reserve,39,"Boulders,cobble rock, slope=15 degrees, 40% rock cover, mud",nearest rock along path,25,54,38,O,LG,M,N,15
Olivia Janson,5/8/2015,"Sakara, Rachel, Conner",Alki Beach 1 Reserve,39,"Boulders,cobble rock, slope=15 degrees, 40% rock cover, mud",nearest rock along path,25,54,38,O,GB,F,N,14
Olivia Janson,5/8/2015,"Sakara, Rachel, Conner",Alki Beach 1 Reserve,39,"Boulders,cobble rock, slope=15 degrees, 40% rock cover, mud",nearest rock along path,25,54,38,O,LG,M,N,15
Olivia Janson,5/8/2015,"Sakara, Rachel, Conner",Alki Beach 1 Reserve,39,"Boulders,cobble rock, slope=15 degrees, 40% rock cover, mud",nearest rock along path,25,54,38,O,GB,M,N,17
Olivia Janson,5/8/2015,"Sakara, Rachel, Conner",Alki Beach 1 Reserve,39,"Boulders,cobble rock, slope=15 degrees, 40% rock cover, mud",nearest rock along path,25,54,38,O,LG,M,N,16
Olivia Janson,5/8/2015,"Sakara, Rachel, Conner",Alki Beach 1 Reserve,39,"Boulders,cobble rock, slope=15 degrees, 40% rock cover, mud",nearest rock along path,25,54,38,O,GB,F,Y,11
Olivia Janson,5/8/2015,"Sakara, Rachel, Conner",Alki Beach 1 Reserve,39,"Boulders,cobble rock, slope=15 degrees, 40% rock cover, mud",nearest rock along path,25,54,38,O,GB,M,N,14
Olivia Janson,5/8/2015,"Sakara, Rachel, Conner",Alki Beach 1 Reserve,39,"Boulders,cobble rock, slope=15 degrees, 40% rock cover, mud",nearest rock along path,25,54,38,O,LG,F,N,16
Olivia Janson,5/8/2015,"Sakara, Rachel, Conner",Alki Beach 1 Reserve,39,"Boulders,cobble rock, slope=15 degrees, 40% rock cover, mud",nearest rock along path,25,54,38,O,DG,M,N,14
Olivia Janson,5/8/2015,"Sakara, Rachel, Conner",Alki Beach 1 Reserve,39,"Boulders,cobble rock, slope=15 degrees, 40% rock cover, mud",nearest rock along path,25,54,38,O,LG,F,N,15
Olivia Janson,5/8/2015,"Sakara, Rachel, Conner",Alki Beach 1 Reserve,39,"Boulders,cobble rock, slope=15 degrees, 40% rock cover, mud",nearest rock along path,25,54,38,O,DG,M,N,18
Olivia Janson,5/8/2015,"Sakara, Rachel, Conner",Alki Beach 1 Reserve,39,"Boulders,cobble rock, slope=15 degrees, 40% rock cover, mud",nearest rock along path,25,54,38,O,GB,F,N,13
Olivia Janson,5/8/2015,"Sakara, Rachel, Conner",Alki Beach 1 Reserve,39,"Boulders,cobble rock, slope=15 degrees, 40% rock cover, mud",nearest rock along path,25,54,38,O,GB,M,N,19
Olivia Janson,5/8/2015,"Sakara, Rachel, Conner",Alki Beach 1 Reserve,39,"Boulders,cobble rock, slope=15 degrees, 40% rock cover, mud",nearest rock along path,25,54,38,O,GB,F,N,12
Olivia Janson,5/8/2015,"Sakara, Rachel, Conner",Alki Beach 2 Nonreserve,22,"100% rock, cobble and small boulder",,1,45,25,O,GB,F,Y,9
Olivia Janson,5/8/2015,"Sakara, Rachel, Conner",Alki Beach 2 Nonreserve,22,"100% rock, cobble and small boulder",,1,45,25,O,DG,F,Y,15
Olivia Janson,5/8/2015,"Sakara, Rachel, Conner",Alki Beach 2 Nonreserve,22,"100% rock, cobble and small boulder",,1,45,25,O,DG,M,N,14
Olivia Janson,5/8/2015,"Sakara, Rachel, Conner",Alki Beach 2 Nonreserve,22,"100% rock, cobble and small boulder",,1,45,25,O,LG,M,N,14
Olivia Janson,5/8/2015,"Sakara, Rachel, Conner",Alki Beach 2 Nonreserve,22,"100% rock, cobble and small boulder",,1,45,25,O,LG,M,N,17
Olivia Janson,5/8/2015,"Sakara, Rachel, Conner",Alki Beach 2 Nonreserve,22,"100% rock, cobble and small boulder",,1,45,25,O,GB,F,N,12
Olivia Janson,5/8/2015,"Sakara, Rachel, Conner",Alki Beach 2 Nonreserve,22,"100% rock, cobble and small boulder",,1,45,25,O,LG,F,Y,14
Olivia Janson,5/8/2015,"Sakara, Rachel, Conner",Alki Beach 2 Nonreserve,22,"100% rock, cobble and small boulder",,1,45,25,O,LG,M,N,13
Olivia Janson,5/8/2015,"Sakara, Rachel, Conner",Alki Beach 2 Nonreserve,22,"100% rock, cobble and small boulder",,1,45,25,O,GB,M,N,21
Olivia Janson,5/8/2015,"Sakara, Rachel, Conner",Alki Beach 2 Nonreserve,22,"100% rock, cobble and small boulder",,1,45,25,O,DG,F,N,15
Olivia Janson,5/8/2015,"Sakara, Rachel, Conner",Alki Beach 2 Nonreserve,22,"100% rock, cobble and small boulder",,1,45,25,O,DG,F,N,13
Olivia Janson,5/8/2015,"Sakara, Rachel, Conner",Alki Beach 2 Nonreserve,22,"100% rock, cobble and small boulder",,1,45,25,O,DG,F,Y,13
Olivia Janson,5/8/2015,"Sakara, Rachel, Conner",Alki Beach 2 Nonreserve,22,"100% rock, cobble and small boulder",,1,45,25,O,LG,F,N,15
Olivia Janson,5/8/2015,"Sakara, Rachel, Conner",Alki Beach 2 Nonreserve,22,"100% rock, cobble and small boulder",,1,45,25,O,GB,M,N,17
Olivia Janson,5/8/2015,"Sakara, Rachel, Conner",Alki Beach 2 Nonreserve,22,"100% rock, cobble and small boulder",,1,45,25,O,DG,F,N,17
Olivia Janson,5/8/2015,"Sakara, Rachel, Conner",Alki Beach 2 Nonreserve,22,"100% rock, cobble and small boulder",,1,45,25,O,DG,F,Y,11
Olivia Janson,5/8/2015,"Sakara, Rachel, Conner",Alki Beach 2 Nonreserve,22,"100% rock, cobble and small boulder",,1,45,25,O,GB,F,Y,12
Olivia Janson,5/8/2015,"Sakara, Rachel, Conner",Alki Beach 2 Nonreserve,22,"100% rock, cobble and small boulder",,1,45,25,O,LG,F,N,15
Olivia Janson,5/8/2015,"Sakara, Rachel, Conner",Alki Beach 2 Nonreserve,22,"100% rock, cobble and small boulder",,1,45,25,O,GB,F,N,15
Olivia Janson,5/8/2015,"Sakara, Rachel, Conner",Alki Beach 2 Nonreserve,22,"100% rock, cobble and small boulder",,1,45,25,O,DG,F,N,14
Olivia Janson,5/8/2015,"Sakara, Rachel, Conner",Alki Beach 2 Nonreserve,22,"100% rock, cobble and small boulder",,1,45,25,O,GB,F,Y,13
Olivia Janson,5/8/2015,"Sakara, Rachel, Conner",Alki Beach 2 Nonreserve,22,"100% rock, cobble and small boulder",,1,45,25,O,GB,F,N,16
Olivia Janson,5/8/2015,"Sakara, Rachel, Conner",Alki Beach 2 Nonreserve,22,"100% rock, cobble and small boulder",,2,12,10,NA,NA,NA,NA,NA
Olivia Janson,5/8/2015,"Sakara, Rachel, Conner",Alki Beach 2 Nonreserve,22,"100% rock, cobble and small boulder",,3,26,16,O,GB,F,N,15
Olivia Janson,5/8/2015,"Sakara, Rachel, Conner",Alki Beach 2 Nonreserve,22,"100% rock, cobble and small boulder",,3,26,16,O,GB,M,N,16
Olivia Janson,5/8/2015,"Sakara, Rachel, Conner",Alki Beach 2 Nonreserve,22,"100% rock, cobble and small boulder",,3,26,16,O,LG,M,N,18
Olivia Janson,5/8/2015,"Sakara, Rachel, Conner",Alki Beach 2 Nonreserve,22,"100% rock, cobble and small boulder",,3,26,16,O,W,F,N,19
Olivia Janson,5/8/2015,"Sakara, Rachel, Conner",Alki Beach 2 Nonreserve,22,"100% rock, cobble and small boulder",,3,26,16,O,GB,F,N,13
Olivia Janson,5/8/2015,"Sakara, Rachel, Conner",Alki Beach 2 Nonreserve,22,"100% rock, cobble and small boulder",,3,26,16,O,DG,F,N,14
Olivia Janson,5/8/2015,"Sakara, Rachel, Conner",Alki Beach 2 Nonreserve,22,"100% rock, cobble and small boulder",,3,26,16,O,GB,F,N,11
Olivia Janson,5/8/2015,"Sakara, Rachel, Conner",Alki Beach 2 Nonreserve,22,"100% rock, cobble and small boulder",,3,26,16,O,GB,F,Y,15
Olivia Janson,5/8/2015,"Sakara, Rachel, Conner",Alki Beach 2 Nonreserve,22,"100% rock, cobble and small boulder",,3,26,16,O,R,F,N,7
Olivia Janson,5/8/2015,"Sakara, Rachel, Conner",Alki Beach 2 Nonreserve,22,"100% rock, cobble and small boulder",,3,26,16,O,GB,M,N,24
Olivia Janson,5/8/2015,"Sakara, Rachel, Conner",Alki Beach 2 Nonreserve,22,"100% rock, cobble and small boulder",,3,26,16,O,LG,F,Y,15
Olivia Janson,5/8/2015,"Sakara, Rachel, Conner",Alki Beach 2 Nonreserve,22,"100% rock, cobble and small boulder",,3,26,16,O,GB,M,N,12
Olivia Janson,5/8/2015,"Sakara, Rachel, Conner",Alki Beach 2 Nonreserve,22,"100% rock, cobble and small boulder",,3,26,16,O,GB,F,N,17
Olivia Janson,5/8/2015,"Sakara, Rachel, Conner",Alki Beach 2 Nonreserve,22,"100% rock, cobble and small boulder",,4,18,14,O,LG,F,N,14
Olivia Janson,5/8/2015,"Sakara, Rachel, Conner",Alki Beach 2 Nonreserve,22,"100% rock, cobble and small boulder",,4,18,14,O,LG,M,N,18
Olivia Janson,5/8/2015,"Sakara, Rachel, Conner",Alki Beach 2 Nonreserve,22,"100% rock, cobble and small boulder",,4,18,14,O,DG,M,N,15
Olivia Janson,5/8/2015,"Sakara, Rachel, Conner",Alki Beach 2 Nonreserve,22,"100% rock, cobble and small boulder",,4,18,14,O,GB,M,N,11
Olivia Janson,5/8/2015,"Sakara, Rachel, Conner",Alki Beach 2 Nonreserve,22,"100% rock, cobble and small boulder",,4,18,14,O,GB,M,N,10
Olivia Janson,5/8/2015,"Sakara, Rachel, Conner",Alki Beach 2 Nonreserve,22,"100% rock, cobble and small boulder",,4,18,14,O,GB,F,N,11
Olivia Janson,5/8/2015,"Sakara, Rachel, Conner",Alki Beach 2 Nonreserve,22,"100% rock, cobble and small boulder",,5,32,20,O,DG,F,N,14
Olivia Janson,5/8/2015,"Sakara, Rachel, Conner",Alki Beach 2 Nonreserve,22,"100% rock, cobble and small boulder",,5,32,20,O,DG,F,N,16
Olivia Janson,5/8/2015,"Sakara, Rachel, Conner",Alki Beach 2 Nonreserve,22,"100% rock, cobble and small boulder",,5,32,20,O,GB,M,N,18
Olivia Janson,5/8/2015,"Sakara, Rachel, Conner",Alki Beach 2 Nonreserve,22,"100% rock, cobble and small boulder",,5,32,20,O,LG,F,N,20
Olivia Janson,5/8/2015,"Sakara, Rachel, Conner",Alki Beach 2 Nonreserve,22,"100% rock, cobble and small boulder",,5,32,20,O,GB,F,Y,13
Olivia Janson,5/8/2015,"Sakara, Rachel, Conner",Alki Beach 2 Nonreserve,22,"100% rock, cobble and small boulder",,5,32,20,O,DG,F,N,14
Olivia Janson,5/8/2015,"Sakara, Rachel, Conner",Alki Beach 2 Nonreserve,22,"100% rock, cobble and small boulder",,5,32,20,O,GB,F,Y,12
Olivia Janson,5/8/2015,"Sakara, Rachel, Conner",Alki Beach 2 Nonreserve,22,"100% rock, cobble and small boulder",,6,10,7,NA,NA,NA,NA,NA
Olivia Janson,5/8/2015,"Sakara, Rachel, Conner",Alki Beach 2 Nonreserve,22,"100% rock, cobble and small boulder",,7,32,15,O,GB,F,Y,11
Olivia Janson,5/8/2015,"Sakara, Rachel, Conner",Alki Beach 2 Nonreserve,22,"100% rock, cobble and small boulder",,7,32,15,O,LG,M,N,19
Olivia Janson,5/8/2015,"Sakara, Rachel, Conner",Alki Beach 2 Nonreserve,22,"100% rock, cobble and small boulder",,7,32,15,O,DG,F,N,16
Olivia Janson,5/8/2015,"Sakara, Rachel, Conner",Alki Beach 2 Nonreserve,22,"100% rock, cobble and small boulder",,7,32,15,O,DG,F,N,15
Olivia Janson,5/8/2015,"Sakara, Rachel, Conner",Alki Beach 2 Nonreserve,22,"100% rock, cobble and small boulder",,7,32,15,O,GB,M,N,16
Olivia Janson,5/8/2015,"Sakara, Rachel, Conner",Alki Beach 2 Nonreserve,22,"100% rock, cobble and small boulder",,7,32,15,O,DG,F,N,14
Olivia Janson,5/8/2015,"Sakara, Rachel, Conner",Alki Beach 2 Nonreserve,22,"100% rock, cobble and small boulder",,7,32,15,O,GB,F,N,17
Olivia Janson,5/8/2015,"Sakara, Rachel, Conner",Alki Beach 2 Nonreserve,22,"100% rock, cobble and small boulder",,7,32,15,O,GB,M,N,13
Olivia Janson,5/8/2015,"Sakara, Rachel, Conner",Alki Beach 2 Nonreserve,22,"100% rock, cobble and small boulder",,7,32,15,O,W,F,N,11
Olivia Janson,5/8/2015,"Sakara, Rachel, Conner",Alki Beach 2 Nonreserve,22,"100% rock, cobble and small boulder",,7,32,15,O,DG,F,N,14
Olivia Janson,5/8/2015,"Sakara, Rachel, Conner",Alki Beach 2 Nonreserve,22,"100% rock, cobble and small boulder",,7,32,15,O,GB,F,N,12
Olivia Janson,5/8/2015,"Sakara, Rachel, Conner",Alki Beach 2 Nonreserve,22,"100% rock, cobble and small boulder",,7,32,15,O,GB,F,N,11
Olivia Janson,5/8/2015,"Sakara, Rachel, Conner",Alki Beach 2 Nonreserve,22,"100% rock, cobble and small boulder",,7,32,15,O,DG,F,N,11
